A&B001      000002001/01/0831/12/08A000000039Y & Z (BUG & INSECT) HIRE          2008                                15,408.40       3.5      15,408.40       3.5                                                                                                                440,240.00           0.00
A&B001      000002101/01/0831/12/08B000002852Y & Z (BUG & INSECT) HIRE          2008                                                                            4 Journal        10/01/08J00013         100.00           0.00         100.00CONTRA ENTRY        0    080110                              
A&B001      000002101/01/0831/12/08B000013851Y & Z (BUG & INSECT) HIRE          2008                                                                            2 Credit Note    01/02/08000005        -100.00           0.00           0.00asasdasd            S/L  080201                              
A&B001      000002101/01/0831/12/08B000002772Y & Z (BUG & INSECT) HIRE          2008                                                                            1 Invoice        26/02/08001820      80,000.00           0.00      94,000.00002412              SOM  080226                              
A&B001      000002101/01/0831/12/08B000002782Y & Z (BUG & INSECT) HIRE          2008                                                                            1 Invoice        26/02/08001821      60,000.00           0.00      70,500.00002413              SOM  080226                              
A&B001      000002101/01/0831/12/08B000002792Y & Z (BUG & INSECT) HIRE          2008                                                                            1 Invoice        26/02/08001822      60,000.00           0.00      70,500.00002414              SOM  080226                              
A&B001      000002101/01/0831/12/08B000002802Y & Z (BUG & INSECT) HIRE          2008                                                                            1 Invoice        26/02/08001823      20,000.00           0.00      23,500.00002415              SOM  080226                              
A&B001      000002101/01/0831/12/08B000002812Y & Z (BUG & INSECT) HIRE          2008                                                                            1 Invoice        26/02/08001824     120,000.00           0.00     141,000.00002416              SOM  080226                              
A&B001      000002101/01/0831/12/08B000002822Y & Z (BUG & INSECT) HIRE          2008                                                                            1 Invoice        28/02/08001825      99,000.00           0.00     116,325.00002417              SOM  080228                              
A&B001      000002101/01/0831/12/08B000002862Y & Z (BUG & INSECT) HIRE          2008                                                                            1 Invoice        01/04/08000232          15.00           0.00          17.63AAAAAAAA            S/L  080401                              
A&B001      000002101/01/0831/12/08B000014211Y & Z (BUG & INSECT) HIRE          2008                                                                            1 Invoice        03/09/08000020       1,000.00           0.00         951.5312123               S/L  080903                              
A&B001      000002101/01/0831/12/08B000000072Y & Z (BUG & INSECT) HIRE          2008                                                                            2 Credit Note    12/09/08001340           0.00           0.00           0.00001340              SOM  080912                              
A&B001      000002101/01/0831/12/08B000014361Y & Z (BUG & INSECT) HIRE          2008                                                                            1 Invoice        15/10/08123213         100.00           0.00           0.00this is test 1      S/L  081015                              
A&B001      000002101/01/0831/12/08B000014381Y & Z (BUG & INSECT) HIRE          2008                                                                            1 Invoice        04/11/08001873          15.00           0.00           0.00002610              SOM  081104                              
A&B001      000002101/01/0831/12/08B000014531Y & Z (BUG & INSECT) HIRE          2008                                                                            2 Credit Note    08/11/08000006        -100.00         -10.00           0.00                    S/L  081108                              
A&B001      000002101/01/0831/12/08B000014421Y & Z (BUG & INSECT) HIRE          2008                                                                            1 Invoice        25/11/08001878           5.00           0.00           0.00002635              SOM  081125                              
A&B001      000002101/01/0831/12/08B000014431Y & Z (BUG & INSECT) HIRE          2008                                                                            1 Invoice        25/11/08001879         105.00           0.00           0.00002614              SOM  081125                              
A&B001      000002101/01/0831/12/08B000000092Y & Z (BUG & INSECT) HIRE          2008                                                                            2 Credit Note    25/11/08001349           0.00           0.00           0.00001349              SOM  081125                              
A&B001      000002101/01/0831/12/08B000014601Y & Z (BUG & INSECT) HIRE          2008                                                                            1 Invoice        26/11/08001886          80.00           0.00           0.00002643              SOM  081126                              
A&B001      000002101/01/0831/12/08B000014691Y & Z (BUG & INSECT) HIRE          2008                                                                            2 Credit Note    27/11/08001365         -75.00           0.00           0.00001365/001886       SOM  081127                              
A&B001      000002101/01/0831/12/08B000014731Y & Z (BUG & INSECT) HIRE          2008                                                                            2 Credit Note    28/11/08001372          -5.00           0.00           0.00001372              SOM  081128                              
A&B001      000002101/01/0831/12/08B000014471Y & Z (BUG & INSECT) HIRE          2008                                                                            1 Invoice        05/12/08012313         100.00           0.00           0.00                    S/L  081205                              
A&B001      000005001/01/0931/12/09A000000069Y & Z (BUG & INSECT) HIRE          2009                                -1,149.79       1.0       1,250.00       5.0                                                                                                               -114,979.06      64,265.90
A&B001      000005101/01/0931/12/09B000015081Y & Z (BUG & INSECT) HIRE          2009                                                                            1 Invoice        13/01/09012123         100.00           5.00           0.00                    S/L  090113                              
A&B001      000005101/01/0931/12/09B000015091Y & Z (BUG & INSECT) HIRE          2009                                                                            1 Invoice        13/01/09000123         100.00           5.00           0.00                    S/L  090113                              
A&B001      000005101/01/0931/12/09B000015131Y & Z (BUG & INSECT) HIRE          2009                                                                            1 Invoice        17/01/09000123         701.40          14.02         806.61                    S/L  090117                              
A&B001      000005101/01/0931/12/09B000015171Y & Z (BUG & INSECT) HIRE          2009                                                                            2 Credit Note    09/02/09001379         -80.00          -1.60           0.00001379              SOM  090209                              
A&B001      000005101/01/0931/12/09B000015181Y & Z (BUG & INSECT) HIRE          2009                                                                            2 Credit Note    09/02/09001380         -15.00          -0.30           0.00001380              SOM  090209                              
A&B001      000005101/01/0931/12/09B000015191Y & Z (BUG & INSECT) HIRE          2009                                                                            2 Credit Note    09/02/09001381         -55.00          -1.10           0.00001381              SOM  090209                              
A&B001      000005101/01/0931/12/09B000015201Y & Z (BUG & INSECT) HIRE          2009                                                                            2 Credit Note    09/02/09001382     -60,000.00      -1,200.00           0.00001382              SOM  090209                              
A&B001      000005101/01/0931/12/09B000015221Y & Z (BUG & INSECT) HIRE          2009                                                                            2 Credit Note    09/02/09001384         -55.00          -1.10           0.00001384              SOM  090209                              
A&B001      000005101/01/0931/12/09B000015231Y & Z (BUG & INSECT) HIRE          2009                                                                            2 Credit Note    09/02/09001387     -60,000.00      -1,200.00           0.00001387              SOM  090209                              
A&B001      000005101/01/0931/12/09B000015241Y & Z (BUG & INSECT) HIRE          2009                                                                            2 Credit Note    09/02/09001388          -0.50          -0.01           0.00001388              SOM  090209                              
A&B001      000005101/01/0931/12/09B000015251Y & Z (BUG & INSECT) HIRE          2009                                                                            2 Credit Note    09/02/09001389          -0.50          -0.01           0.00001389              SOM  090209                              
A&B001      000005101/01/0931/12/09B000003232Y & Z (BUG & INSECT) HIRE          2009                                                                            2 Credit Note    09/02/09001390           0.00           0.00           0.00001390              SOM  090209                              
A&B001      000005101/01/0931/12/09B000015141Y & Z (BUG & INSECT) HIRE          2009                                                                            1 Invoice        17/02/09001909         701.40          14.02           0.00002711              SOM  090217                              
A&B001      000005101/01/0931/12/09B000015271Y & Z (BUG & INSECT) HIRE          2009                                                                            1 Invoice        17/02/09001910         155.00          10.85           0.00002712              SOM  090217                              
A&B001      000005101/01/0931/12/09B000015281Y & Z (BUG & INSECT) HIRE          2009                                                                            1 Invoice        17/02/09001911          52.71           3.68           0.00002713              SOM  090217                              
A&B001      000005101/01/0931/12/09B000015291Y & Z (BUG & INSECT) HIRE          2009                                                                            1 Invoice        17/02/09001912          99.99           6.99           0.00002714              SOM  090217                              
A&B001      000005101/01/0931/12/09B000015321Y & Z (BUG & INSECT) HIRE          2009                                                                            1 Invoice        26/02/09001915         137.78           9.64           0.00002742              SOM  090226                              
A&B001      000005101/01/0931/12/09B000015331Y & Z (BUG & INSECT) HIRE          2009                                                                            1 Invoice        26/02/09001916         137.59           9.63           0.00002743              SOM  090226                              
A&B001      000005101/01/0931/12/09B000015451Y & Z (BUG & INSECT) HIRE          2009                                                                            1 Invoice        26/02/09001930         125.25           8.76           0.00002759              SOM  090226                              
A&B001      000005101/01/0931/12/09B000015541Y & Z (BUG & INSECT) HIRE          2009                                                                            2 Credit Note    26/02/09001401          -2.00          -0.14           0.00001401              SOM  090226                              
A&B001      000005101/01/0931/12/09B000015571Y & Z (BUG & INSECT) HIRE          2009                                                                            2 Credit Note    26/02/09001404          -2.00          -0.14           0.00001404              SOM  090226                              
A&B001      000005101/01/0931/12/09B000003242Y & Z (BUG & INSECT) HIRE          2009                                                                            1 Invoice        26/02/09001917         136.78           9.57         155.86002744              SOM  090226                              
A&B001      000005101/01/0931/12/09B000020943Y & Z (BUG & INSECT) HIRE          2009                                                                              Discount Given 26/02/09C00448          -9.57                                                  DIST 090226                              
A&B001      000005101/01/0931/12/09B000015701Y & Z (BUG & INSECT) HIRE          2009                                                                            1 Invoice        09/04/09123123         100.00           7.00           0.00                    S/L  090409                              
A&B001      000005101/01/0931/12/09B000015891Y & Z (BUG & INSECT) HIRE          2009                                                                            2 Credit Note    29/04/09001405           0.00           0.00           0.00001405              SOM  090429                              
A&B001      000005101/01/0931/12/09B000015901Y & Z (BUG & INSECT) HIRE          2009                                                                            1 Invoice        17/06/09001953         103.47           7.24           0.00002900              SOM  090617                              
A&B001      000005101/01/0931/12/09B000015911Y & Z (BUG & INSECT) HIRE          2009                                                                            1 Invoice        17/06/09001954          98.47           6.89           0.00002901              SOM  090617                              
A&B001      000005101/01/0931/12/09B000015921Y & Z (BUG & INSECT) HIRE          2009                                                                            1 Invoice        17/06/09001955           5.00           0.35           0.00002902              SOM  090617                              
A&B001      000005101/01/0931/12/09B000015931Y & Z (BUG & INSECT) HIRE          2009                                                                            1 Invoice        17/06/09001956           3.47           0.24           0.00002903              SOM  090617                              
A&B001      000005101/01/0931/12/09B000015941Y & Z (BUG & INSECT) HIRE          2009                                                                            1 Invoice        17/06/09001957          15.47           1.08           0.00002913              SOM  090617                              
A&B001      000005101/01/0931/12/09B000015951Y & Z (BUG & INSECT) HIRE          2009                                                                            1 Invoice        17/06/09001958           5.00           0.35           0.00002914              SOM  090617                              
A&B001      000005101/01/0931/12/09B000015961Y & Z (BUG & INSECT) HIRE          2009                                                                            1 Invoice        17/06/09001959           5.00           0.35           0.00002915              SOM  090617                              
A&B001      000005101/01/0931/12/09B000016011Y & Z (BUG & INSECT) HIRE          2009                                                                            2 Credit Note    15/07/09001406      -2,793.90        -195.57           0.00001406              SOM  090715                              
A&B001      000005101/01/0931/12/09B000016021Y & Z (BUG & INSECT) HIRE          2009                                                                            2 Credit Note    15/07/09001407         -50.00          -3.50           0.00001407              SOM  090715                              
A&B001      000005101/01/0931/12/09B000016031Y & Z (BUG & INSECT) HIRE          2009                                                                            2 Credit Note    15/07/09001408         -30.00          -2.09           0.00001408              SOM  090715                              
A&B001      000005101/01/0931/12/09B000016041Y & Z (BUG & INSECT) HIRE          2009                                                                            2 Credit Note    15/07/09001409        -172.47         -12.07           0.00001409              SOM  090715                              
A&B001      000005101/01/0931/12/09B000020973Y & Z (BUG & INSECT) HIRE          2009                                                                              Discount Given 01/08/09C00455          10.00                                                  DIST 090801                              
A&B001      000005101/01/0931/12/09B000016101Y & Z (BUG & INSECT) HIRE          2009                                                                            2 Credit Note    25/08/09001391      -2,793.90        -195.57           0.00001391              SOM  090825                              
A&B001      000005101/01/0931/12/09B000016111Y & Z (BUG & INSECT) HIRE          2009                                                                            2 Credit Note    25/08/09001410        -114.98          -8.04           0.00001410              SOM  090825                              
A&B001      000005101/01/0931/12/09B000016131Y & Z (BUG & INSECT) HIRE          2009                                                                            2 Credit Note    25/08/09001413         -64.00          -4.48           0.00001413              SOM  090825                              
A&B001      000005101/01/0931/12/09B000016061Y & Z (BUG & INSECT) HIRE          2009                                                                            1 Invoice        03/09/09001970       6,005.00         420.35           0.00002957              SOM  090903                              
A&B001      000005101/01/0931/12/09B000016181Y & Z (BUG & INSECT) HIRE          2009                                                                            1 Invoice        03/09/09001972          15.00           1.04           0.00002960              SOM  090903                              
A&B001      000005101/01/0931/12/09B000016231Y & Z (BUG & INSECT) HIRE          2009                                                                            1 Invoice        18/09/09001974         855.00          59.85           0.00002967              SOM  090918                              
A&B001      000005101/01/0931/12/09B000016311Y & Z (BUG & INSECT) HIRE          2009                                                                            1 Invoice        27/10/09001979       1,605.00         112.35           0.00002982              SOM  091027                              
A&B001      000005101/01/0931/12/09B000021283Y & Z (BUG & INSECT) HIRE          2009                                                                              Discount Given 11/12/09C00461         -14.02                                                  DIST 091211                              
A&B001      000005101/01/0931/12/09C000075835Y & Z (BUG & INSECT) HIRE          2009                                                                              Order          14/12/09001943           0.00                              10/11X1/2TC         ORDER091214                              
A&B001      000005101/01/0931/12/09C000076025Y & Z (BUG & INSECT) HIRE          2009                                                                              Order          14/12/09001960         500.00                              10/11X1/2TC         ORDER091214                              
A&B001      000005101/01/0931/12/09C000076045Y & Z (BUG & INSECT) HIRE          2009                                                                              Order          14/12/09001960         160.00                              1-480703A           ORDER091214                              
A&B001      000005101/01/0931/12/09C000076055Y & Z (BUG & INSECT) HIRE          2009                                                                              Order          14/12/09001960         480.00                              1-480703A           ORDER091214                              
A&B001      000005101/01/0931/12/09C000076205Y & Z (BUG & INSECT) HIRE          2009                                                                              Order          14/12/09001967         500.00                              10/11X1/2TC         ORDER091214                              
A&B001      000005101/01/0931/12/09C000076225Y & Z (BUG & INSECT) HIRE          2009                                                                              Order          14/12/09001967          10.00                              CARRIAGE            ORDER091214                              
A&B001      000005101/01/0931/12/09C000076475Y & Z (BUG & INSECT) HIRE          2009                                                                              Order          14/12/09001977         470.40                              5017RKB-240V        ORDER091214                              
A&B001      000005101/01/0931/12/09C000076525Y & Z (BUG & INSECT) HIRE          2009                                                                              Order          14/12/09001981          19.38                              3/02X1/4TC          ORDER091214                              
A&B001      000005101/01/0931/12/09C000076595Y & Z (BUG & INSECT) HIRE          2009                                                                              Order          14/12/09001984         202.50                              10/22X1/2TC         ORDER091214                              
A&B001      000005101/01/0931/12/09C000076605Y & Z (BUG & INSECT) HIRE          2009                                                                              Order          14/12/09001985         100.00                              1-480703A           ORDER091214                              
A&B001      000005101/01/0931/12/09C000076615Y & Z (BUG & INSECT) HIRE          2009                                                                              Order          14/12/09001986         500.00                              10/11X1/2TC         ORDER091214                              
A&B001      000005101/01/0931/12/09C000076755Y & Z (BUG & INSECT) HIRE          2009                                                                              Order          14/12/09001990         500.00                              10/11X1/2TC         ORDER091214                              
A&B001      000005101/01/0931/12/09C000076775Y & Z (BUG & INSECT) HIRE          2009                                                                              Order          14/12/09001990         750.00                              2-1393302-2         ORDER091214                              
A&B001      000005101/01/0931/12/09C000076785Y & Z (BUG & INSECT) HIRE          2009                                                                              Order          14/12/09001991         150.00                              1-480703A           ORDER091214                              
A&B001      000005101/01/0931/12/09C000076795Y & Z (BUG & INSECT) HIRE          2009                                                                              Order          14/12/09001991         150.00                              2-1393302-2         ORDER091214                              
A&B001      000005101/01/0931/12/09C000076805Y & Z (BUG & INSECT) HIRE          2009                                                                              Order          14/12/09001991          20.00                              FOURFIVESIX         ORDER091214                              
A&B001      000005101/01/0931/12/09C000076975Y & Z (BUG & INSECT) HIRE          2009                                                                              Order          14/12/09001996         414.40                              10/1X3/ZZZ          ORDER091214                              
A&B001      000005101/01/0931/12/09C000078395Y & Z (BUG & INSECT) HIRE          2009                                                                              Order          14/12/09002062         405.00                              10/22X1/2TC         ORDER091214                              
A&B001      000005101/01/0931/12/09C000078405Y & Z (BUG & INSECT) HIRE          2009                                                                              Order          14/12/09002062         750.00                              2-1393302-2         ORDER091214                              
A&B001      000005101/01/0931/12/09C000078775Y & Z (BUG & INSECT) HIRE          2009                                                                              Order          14/12/09002091       1,743.00                              5/1X1/4TC           ORDER091214                              
A&B001      000005101/01/0931/12/09C000080315Y & Z (BUG & INSECT) HIRE          2009                                                                              Credit         14/12/09001309           0.00                              1-480703A           ORDER091214                              
A&B001      000005101/01/0931/12/09C000080335Y & Z (BUG & INSECT) HIRE          2009                                                                              Credit         14/12/09001311           0.00                              A-07060             ORDER091214                              
A&B001      000005101/01/0931/12/09C000080345Y & Z (BUG & INSECT) HIRE          2009                                                                              Credit         14/12/09001312           0.00                              10/1X3/ZZZ          ORDER091214                              
A&B001      000005101/01/0931/12/09C000080355Y & Z (BUG & INSECT) HIRE          2009                                                                              Credit         14/12/09001313           0.00                              G10SR2-110V-2       ORDER091214                              
A&B001      000005101/01/0931/12/09C000080365Y & Z (BUG & INSECT) HIRE          2009                                                                              Credit         14/12/09001314           0.00                              J03020BL            ORDER091214                              
A&B001      000005101/01/0931/12/09C000080525Y & Z (BUG & INSECT) HIRE          2009                                                                              Order          14/12/09002171       1,917.00                              5/1X1/4TC           ORDER091214                              
A&B001      000005101/01/0931/12/09C000081325Y & Z (BUG & INSECT) HIRE          2009                                                                              Order          14/12/09002261         100.00                              10/11X1/2TC         ORDER091214                              
A&B001      000005101/01/0931/12/09C000081505Y & Z (BUG & INSECT) HIRE          2009                                                                              Order          14/12/09002281          20.00                              10001               ORDER091214                              
A&B001      000005101/01/0931/12/09C000081585Y & Z (BUG & INSECT) HIRE          2009                                                                              Order          14/12/09002290          22.30                              5/1X1/4TC           ORDER091214                              
A&B001      000005101/01/0931/12/09C000082135Y & Z (BUG & INSECT) HIRE          2009                                                                              Order          14/12/09002301          22.30                              5/1X1/4TC           ORDER091214                              
A&B001      000005101/01/0931/12/09C000082855Y & Z (BUG & INSECT) HIRE          2009                                                                              Order          14/12/09002332         125.00                              100.200.800.900     ORDER091214                              
A&B001      000005101/01/0931/12/09C000083095Y & Z (BUG & INSECT) HIRE          2009                                                                              Order          14/12/09002366         100.00                              LWE10               ORDER091214                              
A&B001      000005101/01/0931/12/09C000083805Y & Z (BUG & INSECT) HIRE          2009                                                                              Order          14/12/09002397         100.00                              1-480703A           ORDER091214                              
A&B001      000005101/01/0931/12/09C000083815Y & Z (BUG & INSECT) HIRE          2009                                                                              Order          14/12/09002397           0.00                              10/11X1/2TC         ORDER091214                              
A&B001      000005101/01/0931/12/09C000083825Y & Z (BUG & INSECT) HIRE          2009                                                                              Order          14/12/09002397           0.00                              2-1393302-2         ORDER091214                              
A&B001      000005101/01/0931/12/09C000083835Y & Z (BUG & INSECT) HIRE          2009                                                                              Order          14/12/09002398         100.00                              1-480703A           ORDER091214                              
A&B001      000005101/01/0931/12/09C000083845Y & Z (BUG & INSECT) HIRE          2009                                                                              Order          14/12/09002398           0.00                              10/11X1/2TC         ORDER091214                              
A&B001      000005101/01/0931/12/09C000083855Y & Z (BUG & INSECT) HIRE          2009                                                                              Order          14/12/09002398           0.00                              2-1393302-2         ORDER091214                              
A&B001      000005101/01/0931/12/09C000083865Y & Z (BUG & INSECT) HIRE          2009                                                                              Order          14/12/09002399         100.00                              1-480703A           ORDER091214                              
A&B001      000005101/01/0931/12/09C000083875Y & Z (BUG & INSECT) HIRE          2009                                                                              Order          14/12/09002399           0.00                              10/11X1/2TC         ORDER091214                              
A&B001      000005101/01/0931/12/09C000083885Y & Z (BUG & INSECT) HIRE          2009                                                                              Order          14/12/09002399           0.00                              2-1393302-2         ORDER091214                              
A&B001      000005101/01/0931/12/09C000083935Y & Z (BUG & INSECT) HIRE          2009                                                                              Order          14/12/09002404          50.00                              1-480703A           ORDER091214                              
A&B001      000005101/01/0931/12/09C000083945Y & Z (BUG & INSECT) HIRE          2009                                                                              Order          14/12/09002404           0.00                              10/11X1/2TC         ORDER091214                              
A&B001      000005101/01/0931/12/09C000083955Y & Z (BUG & INSECT) HIRE          2009                                                                              Order          14/12/09002404           0.00                              2-1393302-2         ORDER091214                              
A&B001      000005101/01/0931/12/09C000083965Y & Z (BUG & INSECT) HIRE          2009                                                                              Order          14/12/09002405         156.30                              1-480703A           ORDER091214                              
A&B001      000005101/01/0931/12/09C000083975Y & Z (BUG & INSECT) HIRE          2009                                                                              Order          14/12/09002405           0.00                              10/11X1/2TC         ORDER091214                              
A&B001      000005101/01/0931/12/09C000083985Y & Z (BUG & INSECT) HIRE          2009                                                                              Order          14/12/09002405           0.00                              2-1393302-2         ORDER091214                              
A&B001      000005101/01/0931/12/09C000083995Y & Z (BUG & INSECT) HIRE          2009                                                                              Order          14/12/09002405         134.00                              3/02X1/4TC          ORDER091214                              
A&B001      000005101/01/0931/12/09C000084005Y & Z (BUG & INSECT) HIRE          2009                                                                              Order          14/12/09002405           0.00                              FOURFIVESIX         ORDER091214                              
A&B001      000005101/01/0931/12/09C000084015Y & Z (BUG & INSECT) HIRE          2009                                                                              Order          14/12/09002405           0.00                              5/1X1/4TC           ORDER091214                              
A&B001      000005101/01/0931/12/09C000084025Y & Z (BUG & INSECT) HIRE          2009                                                                              Order          14/12/09002405           0.00                              6/5X1/4TC           ORDER091214                              
A&B001      000005101/01/0931/12/09C000084035Y & Z (BUG & INSECT) HIRE          2009                                                                              Order          14/12/09002405          75.00                              FOURFIVESIX         ORDER091214                              
A&B001      000005101/01/0931/12/09C000084055Y & Z (BUG & INSECT) HIRE          2009                                                                              Order          14/12/09002405         150.00                              3/02X1/4TC          ORDER091214                              
A&B001      000005101/01/0931/12/09C000084065Y & Z (BUG & INSECT) HIRE          2009                                                                              Order          14/12/09002405           0.00                              FOURFIVESIX         ORDER091214                              
A&B001      000005101/01/0931/12/09C000084075Y & Z (BUG & INSECT) HIRE          2009                                                                              Order          14/12/09002405           0.00                              5/1X1/4TC           ORDER091214                              
A&B001      000005101/01/0931/12/09C000084085Y & Z (BUG & INSECT) HIRE          2009                                                                              Order          14/12/09002405           0.00                              6/5X1/4TC           ORDER091214                              
A&B001      000005101/01/0931/12/09C000084095Y & Z (BUG & INSECT) HIRE          2009                                                                              Order          14/12/09002405         361.80                              10/1X3/ZZZ          ORDER091214                              
A&B001      000005101/01/0931/12/09C000084225Y & Z (BUG & INSECT) HIRE          2009                                                                              Order          14/12/09002411           0.01                              YCS3012             ORDER091214                              
A&B001      000005101/01/0931/12/09C000084235Y & Z (BUG & INSECT) HIRE          2009                                                                              Order          14/12/09002411           1.26                              LWE50               ORDER091214                              
A&B001      000005101/01/0931/12/09C000084335Y & Z (BUG & INSECT) HIRE          2009                                                                              Order          14/12/09002428           6.80                              A-07060             ORDER091214                              
A&B001      000005101/01/0931/12/09C000084345Y & Z (BUG & INSECT) HIRE          2009                                                                              Order          14/12/09002429           6.80                              A-07060             ORDER091214                              
A&B001      000005101/01/0931/12/09C000084595Y & Z (BUG & INSECT) HIRE          2009                                                                              Order          14/12/09002457         241.20                              10/1X3/ZZZ          ORDER091214                              
A&B001      000005101/01/0931/12/09C000084635Y & Z (BUG & INSECT) HIRE          2009                                                                              Order          14/12/09002458         361.80                              10/1X3/ZZZ          ORDER091214                              
A&B001      000005101/01/0931/12/09C000084675Y & Z (BUG & INSECT) HIRE          2009                                                                              Order          14/12/09002459         241.20                              10/1X3/ZZZ          ORDER091214                              
A&B001      000005101/01/0931/12/09C000084715Y & Z (BUG & INSECT) HIRE          2009                                                                              Order          14/12/09002460         241.20                              10/1X3/ZZZ          ORDER091214                              
A&B001      000005101/01/0931/12/09C000084915Y & Z (BUG & INSECT) HIRE          2009                                                                              Credit         14/12/09001337        -527.16                              1-480703A           ORDER091214                              
A&B001      000005101/01/0931/12/09C000085085Y & Z (BUG & INSECT) HIRE          2009                                                                              Order          14/12/09002471         395.00                              BIRS10015           ORDER091214                              
A&B001      000005101/01/0931/12/09C000085095Y & Z (BUG & INSECT) HIRE          2009                                                                              Order          14/12/09002471           0.00                              ALAN1               ORDER091214                              
A&B001      000005101/01/0931/12/09C000085115Y & Z (BUG & INSECT) HIRE          2009                                                                              Order          14/12/09002473           0.00                              ZZZ000049           ORDER091214                              
A&B001      000005101/01/0931/12/09C000085125Y & Z (BUG & INSECT) HIRE          2009                                                                              Order          14/12/09002473         120.00                              LOWORDERCHARGE      ORDER091214                              
A&B001      000005101/01/0931/12/09C000085135Y & Z (BUG & INSECT) HIRE          2009                                                                              Order          14/12/09002474         560.00                              1-480703A           ORDER091214                              
A&B001      000005101/01/0931/12/09C000085145Y & Z (BUG & INSECT) HIRE          2009                                                                              Order          14/12/09002474           0.00                              10/11X1/2TC         ORDER091214                              
A&B001      000005101/01/0931/12/09C000085155Y & Z (BUG & INSECT) HIRE          2009                                                                              Order          14/12/09002474           0.00                              2-1393302-2         ORDER091214                              
A&B001      000005101/01/0931/12/09C000085195Y & Z (BUG & INSECT) HIRE          2009                                                                              Order          14/12/09002476          10.00                              1-480703A           ORDER091214                              
A&B001      000005101/01/0931/12/09C000085205Y & Z (BUG & INSECT) HIRE          2009                                                                              Order          14/12/09002476           0.00                              10/11X1/2TC         ORDER091214                              
A&B001      000005101/01/0931/12/09C000085215Y & Z (BUG & INSECT) HIRE          2009                                                                              Order          14/12/09002476           0.00                              2-1393302-2         ORDER091214                              
A&B001      000005101/01/0931/12/09C000085405Y & Z (BUG & INSECT) HIRE          2009                                                                              Order          14/12/09002486           9.99                              10/1X3/ZZZ          ORDER091214                              
A&B001      000005101/01/0931/12/09C000086195Y & Z (BUG & INSECT) HIRE          2009                                                                              Order          14/12/09002550          14.89                              3/02X1/4TC          ORDER091214                              
A&B001      000005101/01/0931/12/09C000086205Y & Z (BUG & INSECT) HIRE          2009                                                                              Order          14/12/09002550           0.00                              FOURFIVESIX         ORDER091214                              
A&B001      000005101/01/0931/12/09C000086215Y & Z (BUG & INSECT) HIRE          2009                                                                              Order          14/12/09002550           0.00                              5/1X1/4TC           ORDER091214                              
A&B001      000005101/01/0931/12/09C000086225Y & Z (BUG & INSECT) HIRE          2009                                                                              Order          14/12/09002550           0.00                              6/5X1/4TC           ORDER091214                              
A&B001      000005101/01/0931/12/09C000086235Y & Z (BUG & INSECT) HIRE          2009                                                                              Order          14/12/09002550         105.11                              LOWORDERCHARGE      ORDER091214                              
A&B001      000005101/01/0931/12/09C000086415Y & Z (BUG & INSECT) HIRE          2009                                                                              Order          14/12/09002553         415.00                              10/1X3/ZZZ          ORDER091214                              
A&B001      000005101/01/0931/12/09C000086455Y & Z (BUG & INSECT) HIRE          2009                                                                              Order          14/12/09002553          74.45                              3/02X1/4TC          ORDER091214                              
A&B001      000005101/01/0931/12/09C000086465Y & Z (BUG & INSECT) HIRE          2009                                                                              Order          14/12/09002553           0.00                              FOURFIVESIX         ORDER091214                              
A&B001      000005101/01/0931/12/09C000086475Y & Z (BUG & INSECT) HIRE          2009                                                                              Order          14/12/09002553           0.00                              5/1X1/4TC           ORDER091214                              
A&B001      000005101/01/0931/12/09C000086485Y & Z (BUG & INSECT) HIRE          2009                                                                              Order          14/12/09002553           0.00                              6/5X1/4TC           ORDER091214                              
A&B001      000005101/01/0931/12/09C000086495Y & Z (BUG & INSECT) HIRE          2009                                                                              Order          14/12/09002553         165.60                              3/08X1/4TC          ORDER091214                              
A&B001      000005101/01/0931/12/09C000086545Y & Z (BUG & INSECT) HIRE          2009                                                                              Order          14/12/09002555          83.00                              10/1X3/ZZZ          ORDER091214                              
A&B001      000005101/01/0931/12/09C000086585Y & Z (BUG & INSECT) HIRE          2009                                                                              Order          14/12/09002555          37.00                              LOWORDERCHARGE      ORDER091214                              
A&B001      000005101/01/0931/12/09C000086925Y & Z (BUG & INSECT) HIRE          2009                                                                              Credit         14/12/09001344           0.00                              1-480703A           ORDER091214                              
A&B001      000005101/01/0931/12/09C000087415Y & Z (BUG & INSECT) HIRE          2009                                                                              Order          14/12/09002597           0.00                              1-480703A           ORDER091214                              
A&B001      000005101/01/0931/12/09C000087425Y & Z (BUG & INSECT) HIRE          2009                                                                              Order          14/12/09002597           0.00                              10/11X1/2TC         ORDER091214                              
A&B001      000005101/01/0931/12/09C000087435Y & Z (BUG & INSECT) HIRE          2009                                                                              Order          14/12/09002597           0.00                              2-1393302-2         ORDER091214                              
A&B001      000005101/01/0931/12/09C000087445Y & Z (BUG & INSECT) HIRE          2009                                                                              Order          14/12/09002597         120.00                              LOWORDERCHARGE      ORDER091214                              
A&B001      000005101/01/0931/12/09C000087495Y & Z (BUG & INSECT) HIRE          2009                                                                              Order          14/12/09002601         150.00                              1-480703A           ORDER091214                              
A&B001      000005101/01/0931/12/09C000087505Y & Z (BUG & INSECT) HIRE          2009                                                                              Order          14/12/09002601           0.00                              10/11X1/2TC         ORDER091214                              
A&B001      000005101/01/0931/12/09C000087515Y & Z (BUG & INSECT) HIRE          2009                                                                              Order          14/12/09002601           0.00                              2-1393302-2         ORDER091214                              
A&B001      000005101/01/0931/12/09C000088035Y & Z (BUG & INSECT) HIRE          2009                                                                              Order          14/12/09002642          50.00                              1-480703A           ORDER091214                              
A&B001      000005101/01/0931/12/09C000088045Y & Z (BUG & INSECT) HIRE          2009                                                                              Order          14/12/09002642           0.00                              10/11X1/2TC         ORDER091214                              
A&B001      000005101/01/0931/12/09C000088055Y & Z (BUG & INSECT) HIRE          2009                                                                              Order          14/12/09002642           0.00                              2-1393302-2         ORDER091214                              
A&B001      000005101/01/0931/12/09C000088065Y & Z (BUG & INSECT) HIRE          2009                                                                              Order          14/12/09002643         500.00                              10/11X1/2TC         ORDER091214                              
A&B001      000005101/01/0931/12/09C000088195Y & Z (BUG & INSECT) HIRE          2009                                                                              Order          14/12/09002651         100.00                              10/11X1/2TC         ORDER091214                              
A&B001      000005101/01/0931/12/09C000088325Y & Z (BUG & INSECT) HIRE          2009                                                                              Order          14/12/09002658           0.00                              1-480703A           ORDER091214                              
A&B001      000005101/01/0931/12/09C000088335Y & Z (BUG & INSECT) HIRE          2009                                                                              Order          14/12/09002658           0.00                              10/11X1/2TC         ORDER091214                              
A&B001      000005101/01/0931/12/09C000088345Y & Z (BUG & INSECT) HIRE          2009                                                                              Order          14/12/09002658           0.00                              2-1393302-2         ORDER091214                              
A&B001      000005101/01/0931/12/09C000088355Y & Z (BUG & INSECT) HIRE          2009                                                                              Order          14/12/09002658       7,500.00                              2-1393302-2         ORDER091214                              
A&B001      000005101/01/0931/12/09C000088365Y & Z (BUG & INSECT) HIRE          2009                                                                              Order          14/12/09002658       6,250.00                              6/5X1/4TC           ORDER091214                              
A&B001      000005101/01/0931/12/09C000088375Y & Z (BUG & INSECT) HIRE          2009                                                                              Order          14/12/09002659         150.00                              1-480703A           ORDER091214                              
A&B001      000005101/01/0931/12/09C000088385Y & Z (BUG & INSECT) HIRE          2009                                                                              Order          14/12/09002659           0.00                              10/11X1/2TC         ORDER091214                              
A&B001      000005101/01/0931/12/09C000088395Y & Z (BUG & INSECT) HIRE          2009                                                                              Order          14/12/09002659           0.00                              2-1393302-2         ORDER091214                              
A&B001      000005101/01/0931/12/09C000088405Y & Z (BUG & INSECT) HIRE          2009                                                                              Order          14/12/09002659         385.00                              2-1393302-2         ORDER091214                              
A&B001      000005101/01/0931/12/09C000088415Y & Z (BUG & INSECT) HIRE          2009                                                                              Order          14/12/09002659       6,000.00                              6/5X1/4TC           ORDER091214                              
A&B001      000005101/01/0931/12/09C000088715Y & Z (BUG & INSECT) HIRE          2009                                                                              Order          14/12/09002685           0.00                              3/02X1/4TC          ORDER091214                              
A&B001      000005101/01/0931/12/09C000088725Y & Z (BUG & INSECT) HIRE          2009                                                                              Order          14/12/09002685           0.00                              FOURFIVESIX         ORDER091214                              
A&B001      000005101/01/0931/12/09C000088735Y & Z (BUG & INSECT) HIRE          2009                                                                              Order          14/12/09002685           0.00                              5/1X1/4TC           ORDER091214                              
A&B001      000005101/01/0931/12/09C000088745Y & Z (BUG & INSECT) HIRE          2009                                                                              Order          14/12/09002685           0.00                              6/5X1/4TC           ORDER091214                              
A&B001      000005101/01/0931/12/09C000088765Y & Z (BUG & INSECT) HIRE          2009                                                                              Order          14/12/09002687         625.00                              3/02X1/4TC          ORDER091214                              
A&B001      000005101/01/0931/12/09C000088775Y & Z (BUG & INSECT) HIRE          2009                                                                              Order          14/12/09002687           0.00                              FOURFIVESIX         ORDER091214                              
A&B001      000005101/01/0931/12/09C000088785Y & Z (BUG & INSECT) HIRE          2009                                                                              Order          14/12/09002687           0.00                              5/1X1/4TC           ORDER091214                              
A&B001      000005101/01/0931/12/09C000088795Y & Z (BUG & INSECT) HIRE          2009                                                                              Order          14/12/09002687           0.00                              6/5X1/4TC           ORDER091214                              
A&B001      000005101/01/0931/12/09C000088805Y & Z (BUG & INSECT) HIRE          2009                                                                              Order          14/12/09002688          45.00                              100.200.300         ORDER091214                              
A&B001      000005101/01/0931/12/09C000088825Y & Z (BUG & INSECT) HIRE          2009                                                                              Order          14/12/09002689         460.00                              5/1X1/4TC           ORDER091214                              
A&B001      000005101/01/0931/12/09C000088835Y & Z (BUG & INSECT) HIRE          2009                                                                              Order          14/12/09002690       1,200.00                              8/1X1/4TCB          ORDER091214                              
A&B001      000005101/01/0931/12/09C000088845Y & Z (BUG & INSECT) HIRE          2009                                                                              Order          14/12/09002691           0.00                              5/1X1/4TCB          ORDER091214                              
A&B001      000005101/01/0931/12/09C000088855Y & Z (BUG & INSECT) HIRE          2009                                                                              Order          14/12/09002692           0.00                              60/2-110V           ORDER091214                              
A&B001      000005101/01/0931/12/09C000088865Y & Z (BUG & INSECT) HIRE          2009                                                                              Order          14/12/09002693           0.00                              7/01X1/4TC          ORDER091214                              
A&B001      000005101/01/0931/12/09C000088875Y & Z (BUG & INSECT) HIRE          2009                                                                              Order          14/12/09002694          10.00                              5/1X1/4TC           ORDER091214                              
A&B001      000005101/01/0931/12/09C000088885Y & Z (BUG & INSECT) HIRE          2009                                                                              Order          14/12/09002695       5,300.00                              5/1X1/4TC           ORDER091214                              
A&B001      000005101/01/0931/12/09C000088895Y & Z (BUG & INSECT) HIRE          2009                                                                              Order          14/12/09002696           5.00                              5/1X1/4TC           ORDER091214                              
A&B001      000005101/01/0931/12/09C000088905Y & Z (BUG & INSECT) HIRE          2009                                                                              Order          14/12/09002697           0.00                              50/1-110V           ORDER091214                              
A&B001      000005101/01/0931/12/09C000088915Y & Z (BUG & INSECT) HIRE          2009                                                                              Order          14/12/09002698           3.00                              3/03X1/4TC          ORDER091214                              
A&B001      000005101/01/0931/12/09C000088925Y & Z (BUG & INSECT) HIRE          2009                                                                              Order          14/12/09002699          66.00                              8/1X1/4TCB          ORDER091214                              
A&B001      000005101/01/0931/12/09C000088935Y & Z (BUG & INSECT) HIRE          2009                                                                              Order          14/12/09002700           8.00                              3/06X1/4TC          ORDER091214                              
A&B001      000005101/01/0931/12/09C000088955Y & Z (BUG & INSECT) HIRE          2009                                                                              Order          14/12/09002702           6.08                              6/5X1/4TC           ORDER091214                              
A&B001      000005101/01/0931/12/09C000088965Y & Z (BUG & INSECT) HIRE          2009                                                                              Order          14/12/09002703           6.00                              2-1393302-2         ORDER091214                              
A&B001      000005101/01/0931/12/09C000088975Y & Z (BUG & INSECT) HIRE          2009                                                                              Order          14/12/09002704           0.00                              3/03X1/4TC          ORDER091214                              
A&B001      000005101/01/0931/12/09C000088985Y & Z (BUG & INSECT) HIRE          2009                                                                              Order          14/12/09002705           3.04                              8/1X1/4TCB          ORDER091214                              
A&B001      000005101/01/0931/12/09C000088995Y & Z (BUG & INSECT) HIRE          2009                                                                              Order          14/12/09002706         750.00                              1-480703A           ORDER091214                              
A&B001      000005101/01/0931/12/09C000089005Y & Z (BUG & INSECT) HIRE          2009                                                                              Order          14/12/09002706           0.00                              10/11X1/2TC         ORDER091214                              
A&B001      000005101/01/0931/12/09C000089015Y & Z (BUG & INSECT) HIRE          2009                                                                              Order          14/12/09002706           0.00                              2-1393302-2         ORDER091214                              
A&B001      000005101/01/0931/12/09C000089025Y & Z (BUG & INSECT) HIRE          2009                                                                              Order          14/12/09002707         150.00                              1-480703A           ORDER091214                              
A&B001      000005101/01/0931/12/09C000089035Y & Z (BUG & INSECT) HIRE          2009                                                                              Order          14/12/09002707           0.00                              10/11X1/2TC         ORDER091214                              
A&B001      000005101/01/0931/12/09C000089045Y & Z (BUG & INSECT) HIRE          2009                                                                              Order          14/12/09002707           0.00                              2-1393302-2         ORDER091214                              
A&B001      000005101/01/0931/12/09C000089055Y & Z (BUG & INSECT) HIRE          2009                                                                              Order          14/12/09002708          50.00                              6/5X1/4TC           ORDER091214                              
A&B001      000005101/01/0931/12/09C000089085Y & Z (BUG & INSECT) HIRE          2009                                                                              Credit         14/12/09001385           0.00                              3/03X1/4TC          ORDER091214                              
A&B001      000005101/01/0931/12/09C000089095Y & Z (BUG & INSECT) HIRE          2009                                                                              Credit         14/12/09001386           0.00                              8/1X1/4TCB          ORDER091214                              
A&B001      000005101/01/0931/12/09C000089385Y & Z (BUG & INSECT) HIRE          2009                                                                              Credit         14/12/09001392         -50.00                              1-480703A           ORDER091214                              
A&B001      000005101/01/0931/12/09C000089395Y & Z (BUG & INSECT) HIRE          2009                                                                              Credit         14/12/09001392           0.00                              10/11X1/2TC         ORDER091214                              
A&B001      000005101/01/0931/12/09C000089405Y & Z (BUG & INSECT) HIRE          2009                                                                              Credit         14/12/09001392           0.00                              2-1393302-2         ORDER091214                              
A&B001      000005101/01/0931/12/09C000089455Y & Z (BUG & INSECT) HIRE          2009                                                                              Order          14/12/09002733           5.00                              1-480703A           ORDER091214                              
A&B001      000005101/01/0931/12/09C000089465Y & Z (BUG & INSECT) HIRE          2009                                                                              Order          14/12/09002733           0.00                              10/11X1/2TC         ORDER091214                              
A&B001      000005101/01/0931/12/09C000089475Y & Z (BUG & INSECT) HIRE          2009                                                                              Order          14/12/09002733           0.00                              2-1393302-2         ORDER091214                              
A&B001      000005101/01/0931/12/09C000089605Y & Z (BUG & INSECT) HIRE          2009                                                                              Order          14/12/09002739           5.28                              1-480703A           ORDER091214                              
A&B001      000005101/01/0931/12/09C000089615Y & Z (BUG & INSECT) HIRE          2009                                                                              Order          14/12/09002739           0.00                              10/11X1/2TC         ORDER091214                              
A&B001      000005101/01/0931/12/09C000089625Y & Z (BUG & INSECT) HIRE          2009                                                                              Order          14/12/09002739           0.00                              2-1393302-2         ORDER091214                              
A&B001      000005101/01/0931/12/09C000089645Y & Z (BUG & INSECT) HIRE          2009                                                                              Order          14/12/09002741           0.00                              1-480703A           ORDER091214                              
A&B001      000005101/01/0931/12/09C000089655Y & Z (BUG & INSECT) HIRE          2009                                                                              Order          14/12/09002741           0.00                              10/11X1/2TC         ORDER091214                              
A&B001      000005101/01/0931/12/09C000089665Y & Z (BUG & INSECT) HIRE          2009                                                                              Order          14/12/09002741           0.00                              2-1393302-2         ORDER091214                              
A&B001      000005101/01/0931/12/09C000089685Y & Z (BUG & INSECT) HIRE          2009                                                                              Order          14/12/09002760         135.77                              5/1X1/4TC           ORDER091214                              
A&B001      000005101/01/0931/12/09C000089905Y & Z (BUG & INSECT) HIRE          2009                                                                              Order          14/12/09002778         250.00                              10/22X1/2TC         ORDER091214                              
A&B001      000005101/01/0931/12/09C000089915Y & Z (BUG & INSECT) HIRE          2009                                                                              Order          14/12/09002779          25.00                              10/22X1/2TC         ORDER091214                              
A&B001      000005101/01/0931/12/09C000089925Y & Z (BUG & INSECT) HIRE          2009                                                                              Order          14/12/09002780           5.00                              10/22X1/2TC         ORDER091214                              
A&B001      000005101/01/0931/12/09C000089935Y & Z (BUG & INSECT) HIRE          2009                                                                              Order          14/12/09002781          50.00                              10/22X1/2TC         ORDER091214                              
A&B001      000005101/01/0931/12/09C000089945Y & Z (BUG & INSECT) HIRE          2009                                                                              Order          14/12/09002782          50.00                              10/22X1/2TC         ORDER091214                              
A&B001      000005101/01/0931/12/09C000089955Y & Z (BUG & INSECT) HIRE          2009                                                                              Order          14/12/09002783           5.00                              10/22X1/2TC         ORDER091214                              
A&B001      000005101/01/0931/12/09C000089965Y & Z (BUG & INSECT) HIRE          2009                                                                              Order          14/12/09002784           5.00                              10/22X1/2TC         ORDER091214                              
A&B001      000005101/01/0931/12/09C000089975Y & Z (BUG & INSECT) HIRE          2009                                                                              Order          14/12/09002785          25.00                              10/22X1/2TC         ORDER091214                              
A&B001      000005101/01/0931/12/09C000089985Y & Z (BUG & INSECT) HIRE          2009                                                                              Order          14/12/09002786           5.00                              10/11X1/2TC         ORDER091214                              
A&B001      000005101/01/0931/12/09C000090055Y & Z (BUG & INSECT) HIRE          2009                                                                              Order          14/12/09002787           5.00                              10/11X1/2TC         ORDER091214                              
A&B001      000005101/01/0931/12/09C000090335Y & Z (BUG & INSECT) HIRE          2009                                                                              Order          14/12/09002806           0.10                              G12S2-110V          ORDER091214                              
A&B001      000005101/01/0931/12/09C000090365Y & Z (BUG & INSECT) HIRE          2009                                                                              Order          14/12/09002809          50.00                              10/11X1/2TC         ORDER091214                              
A&B001      000005101/01/0931/12/09C000090595Y & Z (BUG & INSECT) HIRE          2009                                                                              Order          14/12/09002834           1.00                              F016800001          ORDER091214                              
A&B001      000005101/01/0931/12/09C000090615Y & Z (BUG & INSECT) HIRE          2009                                                                              Order          14/12/09002834           2.00                              B-01535             ORDER091214                              
A&B001      000005101/01/0931/12/09C000090645Y & Z (BUG & INSECT) HIRE          2009                                                                              Order          14/12/09002834           0.00                              F016800001          ORDER091214                              
A&B001      000005101/01/0931/12/09C000090665Y & Z (BUG & INSECT) HIRE          2009                                                                              Order          14/12/09002836           0.00                              F016800001          ORDER091214                              
A&B001      000005101/01/0931/12/09C000092855Y & Z (BUG & INSECT) HIRE          2009                                                                              Order          14/12/09002921       9,580.00                              CFH14               ORDER091214                              
A&B001      000005101/01/0931/12/09C000092865Y & Z (BUG & INSECT) HIRE          2009                                                                              Order          14/12/09002922       9,570.00                              CFH14               ORDER091214                              
A&B001      000005101/01/0931/12/09C000092875Y & Z (BUG & INSECT) HIRE          2009                                                                              Order          14/12/09002923           0.00                              1-480703A           ORDER091214                              
A&B001      000005101/01/0931/12/09C000092885Y & Z (BUG & INSECT) HIRE          2009                                                                              Order          14/12/09002923           0.00                              10/11X1/2TC         ORDER091214                              
A&B001      000005101/01/0931/12/09C000092895Y & Z (BUG & INSECT) HIRE          2009                                                                              Order          14/12/09002923           0.00                              2-1393302-2         ORDER091214                              
A&B001      000005101/01/0931/12/09C000093075Y & Z (BUG & INSECT) HIRE          2009                                                                              Order          14/12/09002929          75.00                              10/22X1/2TC         ORDER091214                              
A&B001      000005101/01/0931/12/09C000093205Y & Z (BUG & INSECT) HIRE          2009                                                                              Order          14/12/09002940         229.10                              10/1X3/ZZZ          ORDER091214                              
A&B001      000005101/01/0931/12/09C000093245Y & Z (BUG & INSECT) HIRE          2009                                                                              Order          14/12/09002940         900.00                              FOURFIVESIX         ORDER091214                              
A&B001      000005101/01/0931/12/09C000093265Y & Z (BUG & INSECT) HIRE          2009                                                                              Order          14/12/09002940           5.00                              6/5X1/4TC           ORDER091214                              
A&B001      000005101/01/0931/12/09C000093475Y & Z (BUG & INSECT) HIRE          2009                                                                              Order          14/12/09002950          43.20                              2-1393302-2         ORDER091214                              
A&B001      000005101/01/0931/12/09C000093535Y & Z (BUG & INSECT) HIRE          2009                                                                              Order          14/12/09002958           3.00                              TOOLINGCHARGE       ORDER091214                              
A&B001      000005101/01/0931/12/09C000093545Y & Z (BUG & INSECT) HIRE          2009                                                                              Order          14/12/09002961          50.00                              10/22X1/2TC         ORDER091214                              
A&B001      000005101/01/0931/12/09C000093585Y & Z (BUG & INSECT) HIRE          2009                                                                              Credit         14/12/09001418         -15.00                              A-07060             ORDER091214                              
A&B001      000005101/01/0931/12/09C000093635Y & Z (BUG & INSECT) HIRE          2009                                                                              Order          14/12/09002969         739.20                              3/06X1/4TC          ORDER091214                              
A&B001      000005101/01/0931/12/09C000093975Y & Z (BUG & INSECT) HIRE          2009                                                                              Order          14/12/09002992           0.00                              3/06X1/4TC          ORDER091214                              
A&B001      000005101/01/0931/12/09C000094415Y & Z (BUG & INSECT) HIRE          2009                                                                              Credit         14/12/09001422        -100.00                              10/11X1/2TC         ORDER091214                              
A&B001      000005101/01/0931/12/09C000094425Y & Z (BUG & INSECT) HIRE          2009                                                                              Credit         14/12/09001423        -100.00                              10/11X1/2TC         ORDER091214                              
A&B001      000005101/01/0931/12/09C000094435Y & Z (BUG & INSECT) HIRE          2009                                                                              Credit         14/12/09001424        -250.00                              10/11X1/2TC         ORDER091214                              
A&B001      000005101/01/0931/12/09C000094445Y & Z (BUG & INSECT) HIRE          2009                                                                              Credit         14/12/09001425        -701.40                              10/11X1/2TC         ORDER091214                              
A&B001      000005101/01/0931/12/09C000094705Y & Z (BUG & INSECT) HIRE          2009                                                                              Credit         14/12/09001426        -150.00                              5/1X1/4TC           ORDER091214                              
A&B001      000022001/01/1031/12/10A000000239Y & Z (BUG & INSECT) HIRE          2010                                     0.00       1.0         272.50       1.0                                                                                                                      0.00       1,675.00
A&B001      000022101/01/1031/12/10C000094495Y & Z (BUG & INSECT) HIRE          2010                                                                              Order          08/01/10003011         150.00                              10/11X1/2TC         ORDER100108                              
A&B001      000022101/01/1031/12/10C000094455Y & Z (BUG & INSECT) HIRE          2010                                                                              Order          28/01/10003010         150.00                              1-480703A           ORDER100128                              
A&B001      000022101/01/1031/12/10C000094335Y & Z (BUG & INSECT) HIRE          2010                                                                              Order          12/02/10003005       1,375.00                              F016800001          ORDER100212                              
