-1=0~0~x~H~RGBfgHeaders=200,0,200~HdrFont=,FA_HEAVY~HdrScale=150~RGBbgEven=230,255,240~RGBbgOdd=255,230,255~~1~1~Acct #~#~RGBbg=240,220,100~~2~1~Sub Acct #~#~~3~1~Date~D~~4~1~By~S~~5~1~Notes~S~~
account_number,sub_account_number,note_entry_date_time,entered_by,note_text
002657,001,11/22/2004,CHRIS,"SENT READ LETTER
SENT LETTER & CARD 11/10/05"
000867,001,8/28/1997,DOL,remote stuck final 8/29/97
004753,001,11/6/1997,DOL,closed account -11/6/97-account 1085 forwater & sewer comb.
006443,001,7/8/1998,LORI,Sewer application fees originally applied to incorrect account.  Was previously billed and paid in January on account 3164
002479,001,5/18/1999,CAROL,payment of 153.84 4/12/99 put on this account in error - transferred to account 3479
005979,001,4/20/2001,CHRIS,"WE GOT WATER BILL BACK 4/20/01 STATING MOVED LEFT NO FORWARD ADDRESS NAME IS GINA CRESCIONE SO I SENT BILL TO RESIDENT HOPEFULLY WE WILL GET NEW NAME.   "
000849,001,8/29/2001,CHRIS,SENT REPLACE LETTER
002342,001,9/7/2001,CHRIS,SENT READ LETTER
000820,001,8/25/2003,CHRIS,SENT REPLACE LETTER
006403,001,11/20/2003,CHRIS,"READ LETTER SENT READ LETTER 2/16/05"
000478,001,2/10/2004,CHRIS,SENT READ LETTER
001991,001,2/23/2004,CAROL,SENT READ LETTER
000188,001,8/9/2004,CHRIS,SENT LETTER
003169,001,8/19/2004,CHRIS,SENT READ LETTER
003642,001,11/10/2004,CHRIS,SENT LETTER BAD ERT
002659,001,11/22/2004,CHRIS,SENT READ LETTER
000019,001,2/7/2005,CHRIS,SENT READ LETTER
003393,001,6/9/2003,CHRIS,SENT READ LETTER
006205,001,8/21/2002,CHRIS,STUCK PER PSEG
003829,001,12/6/2001,LORI,SENT LETTER
002774,001,6/3/2003,CHRIS,SENT READ LETTER
001663,001,2/26/2003,CHRIS,SENT LETTER
007028,001,12/9/2002,CHRIS,SENT READ LETTER
000426,001,2/25/2003,CHRIS,SENT READ LETTER
004009,001,12/5/2002,LORI,SENT LETTER 12/5/02
001681,001,2/26/2003,CHRIS,SENT LETTER
002135,001,6/2/2003,CHRIS,SENT LETTER
000493,001,5/31/2002,CHRIS,MARY CAME IN NO ONE LIVES THERE SHE OWNED IT SINCE 4/02 THEY MIGHT BE KNOCKING DOWN.  SIGNED CEASE GARBAGE FORM
002303,001,6/10/2002,CHRIS,SENT READ REPLACE LETTER
006433,001,6/11/2002,CHRIS,SENT READ LETTER
007633,001,6/13/2002,CHRIS,SENT READ LETTER
003740,001,8/16/2002,CHRIS,SENT READ REPLACE LETTER
001137,001,9/10/2002,CAROL,SENT READ LETTER
002711,001,9/11/2002,CHRIS,SENT READ LETTER
002727,001,9/11/2002,CHRIS,SENT READ LETTER
002730,001,9/11/2002,CHRIS,SENT READ LETTER
002736,001,9/11/2002,CHRIS,SENT READ LETTER
002737,001,9/11/2002,CHRIS,"SENT READ LETTER SENT READ LETTER 5/25/05"
002751,001,9/11/2002,CHRIS,SENT READ LETTER
002753,001,9/11/2002,CHRIS,SENT READ LETTER
002772,001,9/11/2002,CHRIS,SENT READ LETTER
002775,001,9/11/2002,CHRIS,SENT READ LETTER
002780,001,9/11/2002,CHRIS,SENT READ LETTER
002782,001,9/11/2002,CHRIS,SENT READ LETTER
002785,001,9/11/2002,CHRIS,SENT LETTER AGAIN
002787,001,9/11/2002,CHRIS,SENT READ LETTER
002790,001,9/11/2002,CHRIS,SENT READ LETTER
002795,001,9/11/2002,CHRIS,SENT LETTER AGAIN
002808,001,9/11/2002,CHRIS,SENT READ LETTER
002818,001,9/11/2002,CHRIS,SENT READ LETTER
002826,001,9/11/2002,CHRIS,SENT READ LETTER
002849,001,9/11/2002,CHRIS,"SENT READ LETTER "
002919,001,9/11/2002,CHRIS,SENT READ LETTER
001430,001,9/11/2002,CAROL,SENT READ LETTER
002943,001,9/11/2002,CHRIS,SENT READ LETTER
002960,001,9/11/2002,CHRIS,SENT READ LETTER
002968,001,9/11/2002,CHRIS,SENT READ LETTER
002989,001,9/11/2002,CHRIS,SENT READ LETTER
003020,001,9/11/2002,CHRIS,"SENT READ LETTER.SENT READ LETTER 8/16/05"
001482,001,9/11/2002,CAROL,SENT READ LETTER
003021,001,9/11/2002,CHRIS,SENT READ LETTER
003025,001,9/11/2002,CHRIS,SENT READ LETTER
003040,001,9/11/2002,CHRIS,"SENT READ LETTER.SENT READ LETTER 8/16/05"
007537,001,5/16/2002,CHRIS,MR DENSEL CALLED WILL REPLACE METER AT ANOTHER TIME WILL READ CARDS AND SEND THEM IN HE IS ONLY HOME ON WEEKENDS.  WHEN IT COMES TIME WHEN WE HAVE TO CHANGE HIS METER HE WILL MAKE ARRANGMENTS FOR SOME ONE TO BE THERE VN
002058,001,9/10/2002,CHRIS,"SENT READ LETTER"
002062,001,9/10/2002,CHRIS,SENT READ LETTER
002064,001,9/10/2002,CHRIS,SENT READ LETTER
002065,001,9/10/2002,CHRIS,SENT READ LETTER
001161,001,9/10/2002,CAROL,SENT  READ LETTER
001174,001,9/10/2002,CAROL,SENT READ LETTER
001175,001,9/10/2002,CAROL,SENT READ LETTER
002104,001,9/10/2002,CHRIS,SENT READ LETTER
001180,001,9/10/2002,CAROL,SENT READ LETTER
002128,001,9/10/2002,CHRIS,SENT READ LETTER
002135,001,9/10/2002,CHRIS,SENT READ LETTER
001181,001,9/10/2002,CAROL,SENT READ LETTER
001191,001,9/10/2002,CAROL,SENT READ LETTER
001193,001,9/10/2002,CAROL,SENT READ LETTER
001195,001,9/10/2002,CAROL,SENT READ LETER
001202,001,9/10/2002,CAROL,SENT READ LETTER
001209,001,9/10/2002,CAROL,SENT READ LETTER
002264,001,9/11/2002,CHRIS,SENT READ LETTER
001227,001,9/11/2002,CAROL,SENT READ LETTER
001225,001,9/11/2002,CAROL,SENT READ LETTER
001232,001,9/11/2002,CAROL,SENT READ LETTER
001233,001,9/11/2002,CAROL,SENT READ LETTER
001234,001,9/11/2002,CAROL,SENT READ LETTER
001240,001,9/11/2002,CAROL,SENT READ LETTER
002268,001,9/11/2002,CHRIS,sent read letter
002282,001,9/11/2002,CHRIS,SENT READ LETTER
001252,001,9/11/2002,CAROL,SENT READ LETTER
001260,001,9/11/2002,CAROL,SENT READ LETTER
002302,001,9/11/2002,CHRIS,SENT READ LETTER
002303,001,9/11/2002,CHRIS,SENT LETTER
001262,001,9/11/2002,CAROL,SENT READ LETTER
002349,001,9/11/2002,CHRIS,SENT READ LETTER
002366,001,9/11/2002,CHRIS,SENT READ LETTER
002381,001,9/11/2002,CHRIS,SENT READ LETTER
002407,001,9/11/2002,CHRIS,SENT READ LETTER
001272,001,9/11/2002,CAROL,SENT READ LETTER
002426,001,9/11/2002,CHRIS,SENT READ LETTER
001274,001,9/11/2002,CAROL,SENT READ LETTER
001276,001,9/11/2002,CAROL,SENT READ LETTER
002452,001,9/11/2002,CHRIS,SENT READ LETTER
001279,001,9/11/2002,CAROL,SENT READ LETTER
002477,001,9/11/2002,CHRIS,SENT READ LETTER
002479,001,9/11/2002,CHRIS,SENT READ LETTER
002481,001,9/11/2002,CHRIS,SENT READ LETTER
002494,001,9/11/2002,CHRIS,SENT READ LETTER
001317,001,9/11/2002,CAROL,SENT READ LETTER
002531,001,9/11/2002,CHRIS,SENT READ LETTER
001321,001,9/11/2002,CAROL,SENT READ LETTER
002535,001,9/11/2002,CHRIS,SENT READ LETTER
002556,001,9/11/2002,CHRIS,SENT READ LETTER
001371,001,9/11/2002,CAROL,SENT READ LETTER
002570,001,9/11/2002,CHRIS,SENT LETTER
002574,001,9/11/2002,CHRIS,SENT READ LETTER
001383,001,9/11/2002,CAROL,SENT READ LETTER
001393,001,9/11/2002,CAROL,SENT READ LETTER
002590,001,9/11/2002,CHRIS,SENT READ LETTER
002613,001,9/11/2002,CHRIS,SENT READ LETTER
001398,001,9/11/2002,CAROL,SENT READ LETTER
001399,001,9/11/2002,CAROL,SENT READ LETTER
002623,001,9/11/2002,CHRIS,SENT READ LETTER
002624,001,9/11/2002,CHRIS,SENT READ LETTER
002630,001,9/11/2002,CHRIS,SENT READ LETTER
002648,001,9/11/2002,CHRIS,SENT READ LETTER
002654,001,9/11/2002,CHRIS,SENT READ LETTER
002673,001,9/11/2002,CHRIS,SENT READ LETTER
002698,001,9/11/2002,CHRIS,SENT READ LETTER
007175,001,11/22/2004,CHRIS,SENT READ LETTER
002647,001,11/22/2004,CHRIS,SENT READ LETTER
007694,001,11/22/2004,CHRIS,SENT ERT LETTER
007217,001,11/22/2004,CHRIS,SENT READ LETTER
002607,001,11/22/2004,CHRIS,SENT READ LETTER
002630,001,11/22/2004,CHRIS,SENT READ LETTER
002623,001,11/22/2004,CHRIS,SENT READ LETTER
002613,001,11/22/2004,CHRIS,"SENT LETTER
"
002535,001,11/22/2004,CHRIS,"SENT READ LETTER
SENT READ LETTER & CARD 11/10/05"
002531,001,11/22/2004,CHRIS,SENT READ LETTER.  SENT REPLACE LETTER 1/27/05.  RESENT LETTER 3/15/05
002570,001,11/22/2004,CHRIS,"SENT READ LETTER.
SENT REPLACE LETTER 3/15/05"
002491,001,11/22/2004,CHRIS,SENT READ LETTER
006502,001,11/22/2004,CHRIS,SENT LETTER
002479,001,11/22/2004,CHRIS,"SENT READ LETTER
SENT READ LETTER 2/16/05"
008428,001,11/22/2004,CHRIS,"SENT READ LETTER
SENT READ LETTER 2/16/05"
002472,001,11/22/2004,CHRIS,"SENT READ LETTER
SENT READ LETTER 2/16/05"
006371,001,11/22/2004,CHRIS,SENT READ LETTER
002790,001,11/22/2004,CHRIS,SENT READ LETTER
002782,001,11/22/2004,CHRIS,"SENT READ LETTER. sent replace letter 2/3/05.
RESENT REPLACE LETTER 3/16/05.
SENT LETTER 8/16/05"
002785,001,11/22/2004,CHRIS,"SENT LETTER. sent replace letter 2/3/05.
sent replace letter 3/15/05
SENT REPLACE LETTER 5/25/05.
SENT LETTER 8/16/05"
002698,001,11/22/2004,CHRIS,SENT ERT LETTER
006865,001,11/22/2004,CHRIS,"SENT READ LETTER.
3/7/05 SENT LETTER AGAIN
SENT READ LETTER 5/25/05.
SENT LETTER 8/16/05
SENT READ LETTER 11/10/05"
002685,001,11/22/2004,CHRIS,SENT READ LETTER
008018,001,11/22/2004,CHRIS,"SENT READ LETTER
SENT READ LETTER 5/25/05.
SENT READ LETTER 8/16/05
SENT READ LETTER & CARD 11/10/05
"
007606,001,11/22/2004,CHRIS,"SENT READ LETTER
SENT READ LETTER 5/25/05.
SENT READ LETTER 8/16/05
SENT READ LETTER & CARD 11/10/05
"
007468,001,11/22/2004,CHRIS,SENT ERT LETTER. FIXED 1/4/05
002742,001,11/22/2004,CHRIS,"SENT READ LETTER.
SENT READ LETTER 5/25/05.
SENT READ LETTER 8/16/05
SENT READ LETTER AND CARD 11/10/05
"
002715,001,11/22/2004,CHRIS,SENT READ LETTER
002714,001,11/22/2004,CHRIS,"SENT READ LETTER.
SENT READ LETTER 8/16/05"
002716,001,11/22/2004,CHRIS,SENT READ LETTER
002711,001,11/22/2004,CHRIS,"SENT READ LETTER
SENT READ LETTER 5/26/05.
SENT READ LETTER 8/16/05"
008003,001,11/23/2004,CHRIS,SENT READ LETTER
002962,001,11/23/2004,CHRIS,SENT READ LETTER
008225,001,11/23/2004,CHRIS,SENT READ LETTER
002972,001,11/23/2004,CHRIS,"SENT READ LETTER PSEG GAVE LARGE READ
"
003047,001,11/23/2004,CHRIS,SENT READ LETTER
002857,001,11/23/2004,CHRIS,SENT READ LETTER
008650,001,11/23/2004,CHRIS,"SENT ERT LETTER.
SENT ERT LETTER 2/17/05.
SENT ERT LETTER 3/16/05. SENT PROGRAM ERT LETTER 4/22/05"
002879,001,11/23/2004,CHRIS,"SENT READ LETTER
SENT READ LETTER 2/16/05. SENT REPLACE LETTER 4/22/05."
002900,001,11/23/2004,CHRIS,LEFT HIGH ESTIMATE NEED TO REPLACE METER
008386,001,11/23/2004,CHRIS,"SENT READ LETTER
SENT READ LETTER 2/16/05.
SENT READ LETTER 5/26/05.
SENT READ LETTER 8/16/05.
SENT READ LETTER AND CARD 11/9/05"
002918,001,11/23/2004,CHRIS,SENT READ LETTER
002919,001,11/23/2004,CHRIS,SENT READ LETTER
007873,001,11/23/2004,CHRIS,SENT READ LETTER
006446,001,11/23/2004,CHRIS,"SENT LETTER
SENT READ LETTER 2/16/05.
SENT READ LETTER 5/26/05"
002800,001,11/23/2004,CHRIS,"SENT ERT LETTER.
SENT ERT LETTER 3/16/05.
SENT PROGRAM ERT LETTER 4/22/05"
006882,001,11/23/2004,CHRIS,"SENT ERT LETTER.
SENT ERT LETTER 2/17/05.
SENT ERT LETTER 3/16/05."
002808,001,11/23/2004,CHRIS,SENT READ LETTER
008483,001,11/23/2004,CHRIS,SENT READ LETTER
007117,001,11/23/2004,CHRIS,"SENT ERT LETTER.
SENT ERT LETTER 2/17/05"
008377,001,11/23/2004,CHRIS,PER BOB GRANT TURN ON WATER AND SEWER
008374,001,11/23/2004,CAROL,SENT READ LETTER - PSEG READ VERY HIGH
003461,001,11/24/2004,CAROL,SENT READ LETTER
003396,001,11/24/2004,CAROL,SENT READ LETTER
003491,001,11/24/2004,CAROL,"SENT READ LETTERT.
SENT LETTER 2/23/05"
003189,001,11/29/2004,CHRIS,"SENT ERT LETTER 10/28/04.
SENT ERT LETTER 2/16/05.
SENT ERT LETTER 3/16/05. SENT PROGRAM LETTER 4/22/05"
003069,001,11/29/2004,CHRIS,SENT READ LETTER
000036,001,2/7/2005,CHRIS,SENT READ LETTER
000040,001,2/7/2005,CHRIS,SENT READ LETTER
000005,001,2/7/2005,CHRIS,SENT READ LETTER
008471,001,2/7/2005,CHRIS,SENT READ LETTER
001819,001,2/7/2005,CHRIS,"SENT READ LETTER
"
001869,001,2/7/2005,CHRIS,"SENT READ LETTER.
SENT REPLACE LETTER 3/15/05"
008197,001,2/7/2005,CHRIS,SENT READ LETTER
001799,001,2/7/2005,CHRIS,SENT LETTER
007263,001,2/7/2005,CHRIS,"SENT READ LETTER
"
001731,001,2/7/2005,CHRIS,"SENT READ LETTER.
3/15/05 RESENT REPLACE METER
"
001776,001,2/7/2005,LORI,"SENT READ LETTER.
SENT LETTERS 4/28/06, 5/19/06, 6/02/06, 6/21/06, 7/11/06"
001792,001,2/7/2005,LORI,SENT READ LETTER
006500,001,2/7/2005,LORI,SENT READ LETTER
001767,001,2/7/2005,LORI,SENT READ REPLACE LETTER
001860,001,2/7/2005,CHRIS,SENT RAD LETTER
001888,001,2/7/2005,CHRIS,SENT READ LETTER
001671,001,2/7/2005,CHRIS,"SENT READ LETTER.
RESENT REPLACE LETTER 3/15/05"
001663,001,2/7/2005,CHRIS,SENT READ LETTER
001680,001,2/7/2005,CHRIS,SENT READ LETTER
006179,001,2/7/2005,CHRIS,"SENT READ LETTER.
SENT REPLACE LETTER 3/15/05"
001690,001,2/7/2005,CHRIS,SENT READ LETTER
001694,001,2/7/2005,CHRIS,SENT READ LETTER
001692,001,2/7/2005,CHRIS,SENT READ LETTER
007074,001,2/7/2005,CHRIS,"ERT IS BROKE SENT LETTER.
SENT ERT PROGRAM LETTER3/17/05. PER REPORT ERT IS BROKE."
008525,001,2/7/2005,CHRIS,HOUSE GONE.  ON 4/14/05 DROPPED OFF METER CHG PER SERVICEMEN 115.00.
004216,001,2/7/2005,CAROL,"CREDIT OF $7352.32 AUTHORIZED BY DAVE HOLLBERG, JAN. 26,2005 "
000035,001,2/7/2005,CHRIS,"BAD ERT  SENT LETTER.
SENT PROGRAM ERT LETTER 3/15/05
SENT PROGRAM ERT LETTER 4/22/05"
000849,001,2/7/2005,CHRIS,WE NEEDED TO REST METER NEW METER PUT IN IN 6/03 LORI HELPED FIGUER OUT
007480,001,2/8/2005,CHRIS,SENT READ LETTER
008436,001,2/8/2005,CHRIS,"SENT READ LETTER.
SENT READ LETTER 5/24/05"
002128,001,2/8/2005,CHRIS,SENT READ LETTER
008203,001,2/8/2005,CHRIS,"SENT READ LETTER
"
001980,001,2/8/2005,CHRIS,"SENT LETTER 
"
001915,001,2/8/2005,CHRIS,SENT READ LETTER
002056,001,2/8/2005,CHRIS,"SENT READ LETTER
SENT READ LETTER 5/24/05"
002032,001,2/8/2005,CHRIS,"SENT READ LETTER
SENT READ LETTER 5/24/05"
002059,001,2/8/2005,CHRIS,"SENT LETTER AGAIN.
SENT REPLACE LETTER 3/15/05.
SENT REPLACE 5/24/05"
002075,001,2/8/2005,CHRIS,"SENT READ LETTER.
SENT READ LETTER 5/24/05"
004040,001,2/8/2005,CHRIS,ERT NEEDS REPROGRAMING PER SERVICE MEN SENT LETTER. FIXED 2/23/05
008385,001,2/8/2005,CHRIS,PER SERVICE MEN ERT NEEDS TO BE REPROGRAMMED. RESENT LETTER 3/10/05
000900,001,2/8/2005,CHRIS,PER SERVICE MEN ERT NEEDS REPROGRAMMING SENT LETTER. RESENT LETTER 3/10/05
008674,001,2/8/2005,CHRIS,PER SERVICE MEN ERT NEEDS REPLACEMENT SENT LETTER. RESPLACED ERT 2/23/05
006653,001,2/8/2005,CHRIS,SENT ERT LETTER PER SERVICE MEN ERT BROKE AGAIN. I CALLED HOME OWNER AND HE WILL CALL ON FRI 2/11/05 TO SET UP APT. NEW ERT INSTALLED 2/16/05
000148,001,2/8/2005,CHRIS,SENT LETTER MIGHT NEED ACTIVATION OR NEW ERT
006390,001,2/8/2005,CHRIS,SENT ERT LETTER PER SERVICEMEN ERT NOT WORKING. FIXED 2/22/05
007339,001,2/8/2005,CHRIS,SENT ERT LETTER PER SERVICE MEN ERT NOT WORKING WORKING 3/10/05
000087,001,2/8/2005,CHRIS,SENT ERT LETTER ITRON NOT PICKING UP READS. FIXED ERT 2/22/05.
000102,001,2/8/2005,CHRIS,"SENT ERT PROGRAM LETTER ITRON NOT P/U READS.
RESENT LETTER 3/17/05"
000227,001,2/8/2005,CHRIS,ERT NOT P/U READ SENT ERT LETTER
000252,001,2/9/2005,CHRIS,"SENT ERT LETTER ITRON NOT PICKING UP READS.
3/17/05 SENT REPAIR REPLACE LETTER ITRON NOT PICKING UP READS"
008234,001,2/9/2005,CHRIS,ERT NOT PICKING UP READ SENT ERT LETTER. FIXED 2/15/05
000426,001,2/9/2005,CHRIS,"ITRON NOT PICKING UP READ SENT ERT LETTER AGAIN. SENT LETTER AGAIN 3/10/05.
FIXED 3/21/05"
007568,001,6/9/2003,CHRIS,JENNIFER CALLED ASKING TO WAIVE INT I SPOKE TO DAVE HE GAVE OK THEY WERE NEVER LATER AND WERE ONLY 2 DAYS LATE THIS TIME.  I WAIVED FOR 29.42 INT ONLY THIS TIME
003412,001,6/9/2003,CHRIS,SENT READ LETTER
003430,001,6/9/2003,CHRIS,SENT LETTER
003434,001,6/9/2003,CHRIS,"SENT READ LETTER
"
003490,001,6/9/2003,CHRIS,SENT READ LETTER
003587,001,6/9/2003,CHRIS,"SENT READ LETTER
"
003595,001,6/9/2003,CHRIS,"SENT REPLACE LETTER
"
001651,001,6/9/2003,CHRIS,OWNER CALLED HIS BASEMENT FLOODED HE WILL CALL WITH READ WHEN HE CAN
008122,001,6/9/2003,CHRIS,CHARGED FOR METER PER MARK
003611,001,6/9/2003,CHRIS,SENT LETTER
003633,001,6/9/2003,CHRIS,"SENT REPLACE LETTER+


"
003663,001,6/9/2003,CHRIS,SENT READ LETTER
003699,001,6/9/2003,CHRIS,SENT REPLACE LETTER
003746,001,6/9/2003,CHRIS,SENT LETTER
003914,001,6/9/2003,CHRIS,SENT REPLACE LETTER
003926,001,6/9/2003,CHRIS,"SENT REPLACE LETTER
"
003942,001,6/9/2003,CHRIS,"SENT REPLACE LATTER
"
003982,001,6/9/2003,CHRIS,"SENT REPLACE LETTER
2/25/04 sent letter
"
003990,001,6/9/2003,CHRIS,SENT REPLACE LETTER
003991,001,6/9/2003,CHRIS,SENT LETTER
004015,001,6/9/2003,CHRIS,SENT LETTER
004021,001,6/9/2003,CHRIS,SENT READ LETTER
001393,001,6/9/2003,CHRIS,NEW METER PUT IN  OCT WE ADJUSTED READINGS AND BILLED FOR WHAT SHOULD BE
004202,001,6/11/2003,CHRIS,sent read letter
004212,001,6/11/2003,JANE,sent replace letter
004244,001,6/11/2003,CHRIS,SENT READ LETTER
004247,001,6/11/2003,JANE,"SENT READ LETTER.
RESENT LETTER 2/17/05"
004211,001,6/11/2003,JANE,SENT READ LETTER
004343,001,6/11/2003,JANE,SENT READ LETTER
004346,001,6/11/2003,JANE,SENT READ LETTER TO GATEHOUSE GALLERY
004353,001,6/11/2003,JANE,SENT READ LETTER TO SNEAKERS UNLIMITED
004361,001,6/11/2003,JANE,SENT READ LETTER
004368,001,6/11/2003,JANE,SENT READ LETTER
006156,001,6/11/2003,JANE,SENT READ LETTER
000624,001,6/11/2003,CAROL,SENT READ LETTER
006179,001,6/11/2003,JANE,"SENT READ LETTER  GAVE HIGHER ESTIMATE
CALLED AND LEFT MESSAGE ON 2/19/04"
006193,001,6/11/2003,JANE,SENT READ LETTER
006248,001,6/11/2003,JANE,SENT READ LETTER
006275,001,6/11/2003,JANE,SENT READ LETTER
008287,001,6/12/2003,LORI,TRANSFERRED OVERPAYMENT FROM A/C 7241 PER REQUEST BY ATTY.
007241,001,6/12/2003,LORI,TRANSFERRED OVERPAYMENT TO A/C 8287 PER ATTY
006376,001,6/12/2003,JANE,SENT READ LETTER
006397,001,6/12/2003,JANE,SENT READ LETTER
006421,001,6/12/2003,JANE,DELETED HH  VERRRRY HIGH READING - ESTIMATED INSTEAD
000697,001,6/12/2003,CAROL,"SENT READ LETTER.
SENT READ LETTER 2/11/05"
000710,001,6/12/2003,CAROL,SENT READ LETTER
000737,001,6/12/2003,CAROL,SENT READ LETTER
000740,001,6/12/2003,CAROL,SENT READ LETTER
006502,001,6/13/2003,CHRIS,SENT READ LETTER
006506,001,6/13/2003,CHRIS,"SENT READ LETTER
"
006507,001,6/13/2003,CHRIS,SENT READ LETTER
006552,001,6/13/2003,CHRIS,SENT READ LETTER
006562,001,6/13/2003,CHRIS,"SENT LETTER
SENT LETTER 2/23/04
"
006569,001,6/13/2003,CHRIS,"SENT READ LETTER
SENT LETTER 2/23/04"
006691,001,6/13/2003,CHRIS,SENT READ LETTER
006802,001,6/13/2003,CHRIS,SENT READ LETTER
006884,001,6/13/2003,CHRIS,SENT READ LETTER
006963,001,6/13/2003,CHRIS,SENT READ LETTER
007028,001,6/13/2003,CHRIS,SENT READ LETTER
007135,001,6/13/2003,CHRIS,SENT READ LETTER
006578,001,8/21/2002,CHRIS,SENT READ LETTER
007796,001,8/22/2002,CHRIS,SENT READ LETTER
008117,001,8/23/2002,CHRIS,ANY QUESTIONS CALL MICHELE AT 973 238-4460 I HAVE TALKED TO HER ABOUT THIS HOUSE THEY ARE TEARING DOWN AND REBUILDING  I SENT HER GARBAGE FORM TODAY TO FILL OUT AND RETURN SHE IS ALSO PAYING THE 51.10 BILL.
006471,001,8/26/2002,CHRIS,SENT READ LETTER
002124,001,8/29/2002,CHRIS,"WE NEED TO CHG METER IT IS BROKE WE NEED TO CALL OR WRITE A LETTER WHEN WE GET THEM IN
"
002495,001,9/9/2002,CHRIS,SENT READ LETTER
000007,001,9/9/2002,CHRIS,SENT READ LETTER
000025,001,9/9/2002,CHRIS,SENT READ LETTER
000047,001,9/9/2002,CHRIS,SENT READ LETTER
000075,001,9/9/2002,CHRIS,SENT READ LETTER
000102,001,9/9/2002,CHRIS,SENT READ LETTER
000111,001,9/9/2002,CHRIS,"SENT READ LETTER


"
000188,001,9/9/2002,CHRIS,SENT READ LETTER
000211,001,9/9/2002,CHRIS,SENT READ LETTER
000284,001,9/9/2002,CHRIS,SENT READ LETTER
000299,001,9/9/2002,CHRIS,SENT READ LETTER
000344,001,9/9/2002,CHRIS,SENT READ LETTER
000359,001,9/9/2002,CHRIS,SENT READ LETTER
000377,001,9/9/2002,CHRIS,SENT READ LETTER
000421,001,9/10/2002,CHRIS,SENT READ LETTER
000426,001,9/10/2002,CHRIS,SENT READ LETTER
000546,001,9/10/2002,CHRIS,SENT READ LETTER
000555,001,9/10/2002,CHRIS,SENT READ LETTER
000569,001,9/10/2002,CHRIS,"SENT READ LETTER
"
000641,001,9/10/2002,CHRIS,"SENT READ LETTER.
SENT READ LETTER"
000666,001,9/10/2002,CHRIS,SENT READ LETTER
000674,001,9/10/2002,CHRIS,SENT READ LETTER
002422,001,9/11/2002,CHRIS,SENT READ LETTER
006359,001,9/13/2002,CHRIS,SENT READ LETTER
008136,001,9/16/2002,CHRIS,AS OF 9/15 NEW TENANT 
002121,001,9/16/2002,CHRIS,SENT BACK CK FOR FINAL.  ALREADY PD RETURNED TO DONNELLY ATTY.
003390,001,9/17/2002,CHRIS,OWNER LEFT MESS ON MACH FOR READ 4572640 I WANTED MEARK TO GET READ BUT NOT ENOUGH TIME BEFORE BILLING
004203,001,9/19/2002,CHRIS,ACTUAL READ 20470 I JUST GAVE SAME READ SINCE NOT MUCH DIFFERENT
004238,001,9/23/2002,CHRIS,READING IS CORRECT WHEN I UPDATED THE READING IT TOOK AWAY MAYS READ BUT USAGE IS CORRECT
001428,001,10/2/2002,CAROL,HOMEOWNER SENT IN READING OF 335910 WITH BILL - PAYMENT OF 22.85 IS SHORT 3.77
001556,001,10/11/2002,CHRIS,MR SEMERARO OWNES THIS BUILDING WHEN WE GET METERS CALL WALKER KOSH 973-835-4919 TO SET UP SERVICE ORDER
004378,001,10/14/2002,CHRIS,NAME CHG 10/14/02 NO FINAL 
000344,001,10/21/2002,CHRIS,READ SENT IN 22300 
003559,001,11/18/2002,CHRIS,PSEG GAVE BAD READ SO I SENT LETTER
002545,001,11/18/2002,CHRIS,PSEG METER READING DOESNT MAKE SENSE SO I SENT REREAD LETTER
003684,001,11/18/2002,CHRIS,PSEG GAVE SAME READ SENT READ LETTER 
006653,001,11/18/2002,CHRIS,PSEG GAVE 9954210 I SENT LETTER.  ERT FIXED 11/24/04
007790,001,11/18/2002,CHRIS,NO FINAL DONE NAME CHG PER ATTY LETTER IN FOLDER 
007493,001,11/19/2002,CHRIS,SENT READ LETTER
007604,001,11/20/2002,CHRIS,SENT REPLACE LETTER
002124,001,11/20/2002,CHRIS,SENT REPLACE LETTER
003749,001,11/26/2002,CHRIS,NO FINAL EVER DONE NEW OWNER J. INFANTE
000022,001,12/2/2002,CHRIS,METER STUCK PER PSEG SENT LETTER TO REREAD INSIDE METER
000544,001,12/2/2002,CHRIS,PER PSEG METER STUCK SENT LETTER
001145,001,12/2/2002,CHRIS,METER STUCK PER PSEG SENT LETTER
001888,001,12/2/2002,CAROL,SENT REPLACE LETTER
001924,001,12/2/2002,CAROL,SENT REPLACE LETTER
000794,001,12/3/2002,CHRIS,SENT READ LETTER
003871,001,12/6/2001,LORI,SENT LETTER
001135,001,9/10/2002,CAROL,SENT READ LETTER
002708,001,9/11/2002,CHRIS,SENT READ LETTER
003043,001,9/11/2002,CHRIS,SENT READ LETTER
003047,001,9/11/2002,CHRIS,SENT READ LETTER
003055,001,9/11/2002,CHRIS,"SENT READ LETTER


"
003079,001,9/11/2002,CHRIS,SENT READ LETTER
003087,001,9/11/2002,CHRIS,SENT READ LETTER
003092,001,9/11/2002,CHRIS,SENT READ LETTER
003102,001,9/11/2002,CHRIS,SENT READ LETTER
003142,001,9/11/2002,CHRIS,SENT READ LETTER
003155,001,9/11/2002,CHRIS,SENT READ LETTER
001546,001,9/11/2002,CAROL,SENT READ LETTER
003172,001,9/11/2002,CHRIS,SENT READ LETTER
003175,001,9/11/2002,CHRIS,SENT READ LETTER
003177,001,9/11/2002,CHRIS,SENT READ LETTER
003189,001,9/11/2002,CHRIS,SENT READ LETTER
003191,001,9/11/2002,CHRIS,SENT READ LETTER
003212,001,9/12/2002,CHRIS,SENT READ LETTER
001556,001,9/12/2002,CAROL,SENT READ AND REPLACE LETTER
003223,001,9/12/2002,CHRIS,SENT READ LETTER
003251,001,9/12/2002,CHRIS,SENT READ LETTER
003300,001,9/12/2002,CHRIS,SENT READ LETTER
003304,001,9/12/2002,CHRIS,SENT READ LETTER
003364,001,9/12/2002,CHRIS,SENT READ LETTER
003386,001,9/12/2002,CHRIS,SENT READ LETTER
003390,001,9/12/2002,CHRIS,SENT READ LETTER
003412,001,9/12/2002,CHRIS,SENT READ LETTER
001663,001,9/12/2002,CAROL,SENT LETTER
003421,001,9/12/2002,CHRIS,SENT READ LETTER
003428,001,9/12/2002,CHRIS,SENT READ LETTER
003429,001,9/12/2002,CHRIS,SENT READ LETTER
003430,001,9/12/2002,CHRIS,SENT READ LETTER
003432,001,9/12/2002,CHRIS,SENT READ LETTER
003437,001,9/12/2002,CHRIS,SENT LETTER
003439,001,9/12/2002,CHRIS,SENT READ LETTER
003490,001,9/12/2002,CHRIS,SENT READ LETTER
003544,001,9/12/2002,CHRIS,SENT READ LETTER
003595,001,9/12/2002,CHRIS,SENT LETTER
003611,001,9/12/2002,CHRIS,SENT READ LETTER
003626,001,9/12/2002,CHRIS,SENT READ LETTER
003633,001,9/12/2002,CHRIS,SENT READ LETTER
003649,001,9/12/2002,CHRIS,SENT READ LETTER
003663,001,9/12/2002,CHRIS,SENT READ LETTER
003684,001,9/12/2002,CHRIS,SENT READ LETTER
003691,001,9/12/2002,CHRIS,SENT READ LETTER
003699,001,9/12/2002,CHRIS,SENT LETTER
003705,001,9/12/2002,CHRIS,"SENT LETTER.
SENT READ LETTER 2/22/05"
003720,001,9/12/2002,CHRIS,SENT READ LETTER
003726,001,9/12/2002,CHRIS,SENT READ LETTER
003761,001,9/12/2002,CHRIS,SENT LETTER
003794,001,9/12/2002,CHRIS,SENT LETTER
003829,001,9/12/2002,CHRIS,SENT READ LETTER
003837,001,9/12/2002,CHRIS,SENT READ LETTER
003865,001,9/12/2002,CHRIS,SENT READ LETTER
003866,001,9/12/2002,CHRIS,SENT READ LETTER
003868,001,9/12/2002,CHRIS,SENT READ LETTER
003869,001,9/12/2002,CHRIS,SENT READ LETTER
003871,001,9/12/2002,CHRIS,SENT READ LETTER
002422,001,9/12/2002,CHRIS,OWNER CALLED IN READ OF 57785 I DIDNT CHG IT BUT GAVE HIM O
000075,001,9/12/2002,CHRIS,HE CALLED IN READ AND I SENT HIM 2 CARDS FOR 11/02 02/03
003892,001,9/12/2002,CHRIS,SENT READ LETTER
004428,034,9/12/2002,CAROL,METER BROKEN PER MARK -
003897,001,9/12/2002,CHRIS,SENT READ LETTER
003914,001,9/12/2002,CHRIS,SENT LETTER
003926,001,9/12/2002,CHRIS,SENT READ LETTER
003934,001,9/12/2002,CHRIS,"SENT READ  LETTER.
SENT READ LETTER 2/18/05
"
003942,001,9/12/2002,CHRIS,SENT READ LETTER
003952,001,9/12/2002,CHRIS,SENT READ LETTER
002324,001,2/26/2003,CHRIS,NO MORE CHARGE FOR GARBAGE HAVE COPY OF LETTER IN CEASE GARBAGE FOLDER
007635,001,6/13/2002,CHRIS,SENT READ LETTER
007643,001,6/13/2002,CHRIS,SENT READ LETTER
007644,001,6/13/2002,CHRIS,SENT READ LETTER
007646,001,6/13/2002,CHRIS,SENT READ LETTER
007655,001,6/13/2002,CHRIS,SENT READ LETTER
007656,001,6/13/2002,CHRIS,SENT READ LETTER
007661,001,6/13/2002,CHRIS,SENT READ LETTER
007686,001,6/13/2002,CHRIS,SENT READ LETTER
007690,001,6/13/2002,CHRIS,SENT READ LETTER
007717,001,6/13/2002,CHRIS,SENT READ LETTER
007762,001,6/13/2002,CHRIS,SENT READ LETTER
007764,001,6/13/2002,CHRIS,SENT READ LETTER
007790,001,6/13/2002,CHRIS,SENT READ LETTER
007797,001,6/13/2002,CHRIS,SENT READ LETTER
007805,001,6/13/2002,CHRIS,SENT READ LETTER
007815,001,6/13/2002,CHRIS,SENT READ LETTER
003221,001,6/13/2002,LORI,INSTALLED NEW METER 12/10/01  RESET AFTER BILLING 1ST QTR. 2002
002108,001,6/14/2002,CHRIS,RESET METER FORGOT TO PUT IN RESET ON LINE SO IT IS ON LINE UP
002807,001,6/14/2002,CHRIS,WATER USED SINCE JAN BILLED FOR 2QTRS GARBAGE
003317,001,6/14/2002,JANE,sent read note
003304,001,6/14/2002,JANE,SENT READ NOTE
003364,001,6/14/2002,JANE,SENT READ NOTE
003379,001,6/14/2002,JANE,SENT READ NOTE
002238,001,6/18/2002,CHRIS,SENT REPLACE LETTER PER PSEG METER BROKE
007893,001,6/18/2002,CHRIS,PER PSEG METER NEEDS REPLACE SENT LETTER
007467,001,6/18/2002,CHRIS,OWNER SENT CARD AFTER RESET METER REC CARD ON 6/18/02
004422,001,6/19/2002,CHRIS,TRANSFERRED CREDIT FROM ACCT 4423 THAT WAS CLOSED.  
004423,001,6/19/2002,CHRIS,METER REMOVED 3/00 SO THIS ACCOUNT WAS COMBINED WITH 4422. WE WERE BILLING BOTH ACCOUNTS SO TRANS. CREDIT 7 QTRS
007508,001,6/20/2002,CHRIS,OLD METER NEVER RESET MARK WENT AND READ METER METER IS CORRECT WE HAVE UNDER ESTIMATED THEM WE STILL NEED NEW METER INFO
007520,001,6/21/2002,CHRIS,RESET METER OVER EST.
002459,001,6/25/2002,CHRIS,MARK TOOK READ WE UNDER ESTIMATED THEM READING IS CORRECT WE ALSO CHGD METER
002161,001,6/28/2002,LORI,CHANGED BILLING ADDRESS.  OWNER MOVED FROM MORRISTOWN
004326,001,7/2/2002,CHRIS,THE BILL KEPT COMMING BACK SO I SENT TO LANDLORD POST OFFICE SAID MOVED LEFT NO ADDRESS
007115,001,7/8/2002,JANE,GLITCH IN PROGRAM WHEN ATTEMPTING TO ADJUST FINAL. JIM IS WORKING ON PROBLEM. FINAL READING  79710; Program fix has been applied so you can complete the final bill for this account.  JKK-7/8/02...
008058,001,7/11/2002,CHRIS,SHERI MOVED IN ON 7/8/02
003130,001,7/12/2002,CHRIS,ON 7/11/02 WE REPLACED METER OLD METER WAS STUCK
007074,001,7/18/2002,CHRIS,AJUSTED BILL BY 59350.00 GALLONS THEY CALLED IN READ
000021,001,8/13/2002,CHRIS,SENT READ LETTER
000353,001,8/13/2002,CHRIS,SENT REPLACE LETTER STUCK PER PSEG
001755,001,8/13/2002,CHRIS,SENT REPLACE LETTER STUCK PER PSEG
002166,001,8/13/2002,CHRIS,SENT REPLACE LETTER PER PSEG BROKE
002835,001,8/13/2002,CHRIS,SENT REPLACE LETTER PER PSEG NEEDS REPLACEMENT
003568,001,8/13/2002,CHRIS,SENT REPLACE ;LETTER
004124,001,8/13/2002,CHRIS,SENT REPLACE LETTER PER PSEG
000317,001,8/13/2002,CHRIS,SENT REPLACE LETTER 
002136,001,8/13/2002,CHRIS,SENT REPLACE LETTER
001573,001,8/15/2002,CHRIS,"BROKE PER PSEG SENT REPLACE LETTER
"
001938,001,8/15/2002,CHRIS,SENT READ REPLACE LETTER
002166,001,8/15/2002,CHRIS,SENT REPLACE LETTER
002519,001,12/2/2002,CHRIS,DELETED 8/1/02 USUAGE HAD TO GIVE CREDIT FOR 12810 GALLONS 
002782,001,6/3/2003,CHRIS,SENT READ LETTER
002785,001,6/3/2003,CHRIS,SENT READ LETTER
002790,001,6/3/2003,CHRIS,"SENT READ LETTER
"
002795,001,6/3/2003,CHRIS,SENT READ LETTER
002865,001,6/3/2003,CHRIS,"SENT READ LETTER
"
002882,001,6/3/2003,CHRIS,SENT READ LETTER
002901,001,6/3/2003,CHRIS,SENT READ LETTER
002919,001,6/3/2003,CHRIS,SENT READ LETTER
002924,001,6/3/2003,CHRIS,SENT READ LETTER
002960,001,6/3/2003,CHRIS,SENT READ LETTER
002962,001,6/3/2003,CHRIS,SENT READ LETTER
002965,001,6/3/2003,CHRIS,SENT READ LETTER
002969,001,6/3/2003,CHRIS,SENT READ LETTER
001007,001,6/3/2003,CHRIS,SENT LETTER
001018,001,6/3/2003,CHRIS,"SENT REPLACE LETTER
"
001045,001,6/3/2003,CHRIS,"SENT READ LETTER.
SENT READ LETTER 2/16/05"
001069,001,6/3/2003,CHRIS,SENT READ LETTER
001137,001,6/3/2003,CHRIS,SENT LETTER
001181,001,6/3/2003,CHRIS,SENT READ LETTER
001193,001,6/3/2003,CHRIS,SENT READ LETTER
001205,001,6/3/2003,CHRIS,SENT READ LETTER
002867,001,6/3/2003,CAROL,NEW NAME - ROBYN VETTER - NO FINAL ORDERED
000002,001,6/5/2003,CAROL,
002036,001,12/21/2001,CHRIS,"HOMEOWNER STATED SHE DOESNT GET BILL TO MAKE SURE BILL PRINTS.  4TH QTR I DOUBLE CHECKED BILL PRINTED AND I MAILED OUT
"
004236,001,12/21/2001,CHRIS,I  ADJSTED 3RD QTR SEWER BUT PER NOTE FROM TENANT HAVE ON FILE THAT HIS LANDLORD IS HOOKING UP END OF OCT SO I BILLED FOR 4TH QTR
000367,001,12/21/2001,CHRIS,SHE CALLED AND WAS CONCERNED ABOUT HIGHER BILL I EXPLAINED TO HER SHE WAS EST LAST TIME THIS MIGHT BE A CATCH UP BILL SHE ACEPTED THAT SHE WILL CHECK NEXT MONTH HER PHONE #973-835-2487
003395,001,12/5/2002,CHRIS,SENT READ LETTER
003490,001,12/5/2002,CHRIS,SENT READ LETTER
003636,001,12/5/2002,CHRIS,SENT LETTER
003769,001,12/5/2002,CHRIS,SENT READ LETTER
003865,001,12/5/2002,CHRIS,SENT READ LETTER
003926,001,12/5/2002,CHRIS,SENT READ LETTER
006160,001,12/6/2002,CHRIS,SENT READ LETTER
006376,001,12/6/2002,CHRIS,SENT READ LETTER
006447,001,12/6/2002,CHRIS,SENT READ LETTER
006495,001,12/6/2002,CHRIS,SENT READ LETTER
006515,001,12/6/2002,CHRIS,SENT READ LETTER
006536,001,12/6/2002,CHRIS,SENT READ LETTER
006888,001,12/9/2002,CHRIS,SENT READ LETTER
007016,001,12/9/2002,CHRIS,SENT READ LETTER
007099,001,12/9/2002,CHRIS,SENT READ LETTER
007290,001,12/9/2002,CHRIS,SENT READ LETTER
007365,001,12/9/2002,CHRIS,SENT READ LETTER
007447,001,12/9/2002,CHRIS,SENT READ LETTER
007493,001,12/9/2002,CHRIS,SENT READ LETTER
007580,001,12/9/2002,CHRIS,SENT READ LETTER
007615,001,12/9/2002,CHRIS,SENT READ LETTER
007651,001,12/9/2002,CHRIS,SENT READ LETTER
007652,001,12/9/2002,CHRIS,SENT READ LETTER
007661,001,12/9/2002,CHRIS,SENT LETTER
007694,001,12/9/2002,CHRIS,SENT READ LETTER
007695,001,12/9/2002,CHRIS,SENT READ LETTER
007708,001,12/9/2002,CHRIS,SENT READ LETTER
007717,001,12/9/2002,CHRIS,SENT READ LETTER
007736,001,12/9/2002,CHRIS,SENT READ LETTER
007797,001,12/9/2002,CHRIS,SENT READ LETTER
007823,001,12/9/2002,CHRIS,SENT READ LETTER
007824,001,12/9/2002,CHRIS,SENT READ LETTER
007847,001,12/9/2002,CHRIS,SENT READ LETTER
007880,001,12/9/2002,CHRIS,SENT READ LETTER
007912,001,12/10/2002,CHRIS,SENT READ LETTER
007913,001,12/10/2002,CHRIS,SENT READ LETTER
007914,001,12/10/2002,CHRIS,SENT READ LETTER
007917,001,12/10/2002,CHRIS,SENT READ LETTER
003081,001,9/11/2002,CHRIS,SENT READ LETTER
008181,001,3/23/2005,LORI,USAGE HAS BEEN CHARGED ON 2 ACCOUNTS.  REFUNDED FOR TOTAL AMOUNT BILLED AND APPLIED CREDIT TO OTHER ACCOUNT #8180
005786,001,3/24/2005,CHRIS,105.75 PYMENT SHOULD BE ON ACCOUNT 5788 1/3/05
005788,001,3/24/2005,CHRIS,PYMT WENT ON ACCOUNT 5786 SHOULD BE ON THIS ACCOUNT SO ADJ.
005788,001,3/24/2005,CHRIS,WE HAD WRONG NAME ON ACCOUNT SHE WILL SEND DOCUMENTS ON OTHER PYMENT THAT NEED TO BE CREDITED TO THIS ACCOUNT WHEN WE DO THIS TAKE OFF INTEREST
007460,001,3/24/2005,CHRIS,COMPUTER ERROR WE ADJUST EXTRA SEWER CHARGE
002322,001,3/28/2005,CHRIS,MARY GIBBS USED TO LIVE HERE THERE IS A LETTER FROM HER IN MY PROBLEM FOLDER.  I SENT A COPY AND A BILL TO LANDLORD
000690,001,3/29/2005,CAROL,HOUSE IS VACANT
000086,001,3/29/2005,CAROL,HOMEOWNER WILL NOT BE HOME UNTIL MAY 2005 -SEND LETTER  BECAUSE ERT IS NOT PICKING UP READINGS 
008113,001,3/30/2005,CHRIS,PER BARBARA TURNED ON SEWER 3/30/05.  WE WILL GET FINAL PAPERWORK IN FUTURE.
008767,001,4/1/2005,CHRIS,WATER IS OFF HE IS ON CONSTRUCTION WATER AND FILLED OUT FORM FOR GARBAGE CEASE. UNTIL 10/05 SERVICE MEN PUT IN NEW METER AS OF 6/21/05
007275,001,4/11/2005,JANE,"bill ret'd to sender...forwarded to owner, R Van Varick "
005812,001,4/11/2005,JANE,STUBLESS PAYMENT IN NAME OF STAPP REC'D FOR ACCT #5812 
004245,001,5/2/2005,CHRIS,
000447,001,5/2/2005,CHRIS,CHECK AND SEE IF WE GET ITRON READ FOR AUG. FOR SOME REASON ITRON DID NOT P/U READ FOR MAY 2005
008028,001,5/2/2005,CHRIS,CAME UP ON NO READ REPORT IF NO READ NEXT QTR (MAY) SEND ERT LETTER
008621,001,5/2/2005,CHRIS,itron did not p/u read for may 2005 we did not have ert # in.  it has been put in on 5/2/05 so should read fine for august 2005
001180,001,5/2/2005,CHRIS,sent ert letter it is not working
007320,001,5/3/2005,CHRIS,SENT ERT PROBLEM LETTER
004422,001,5/3/2005,CHRIS,LOW FLOW IS ERT # 6561 THEY READ MANUAL
003816,001,5/3/2005,CHRIS,I FIXED ERT & METER # SHOULD BE GOOD TO READ FOR 8/05
002818,001,5/3/2005,CHRIS,SENT ERT LETTER BAD READ FROM ITRON IT READ 1
007982,001,5/4/2005,CHRIS,WE PUT IN WRONG ERT NUMBER IT IS NOW FIXED SHOULD BE FINE FOR 8/05 READ
008626,001,5/4/2005,CHRIS,SENT LETTER LAND LORD NEEDS TO BE THERE TO GET TO METERS
002415,001,5/4/2005,CHRIS,ERT READ IS LOWER THAN LAST RADIO READ I AM WAITING AND GOING TO CHECK 8/05 READ.
008796,001,5/4/2005,CHRIS,HOUSE WILL BE DEMOLISHED
007412,001,5/4/2005,CHRIS,IN REVIEWING THE LAST FEW RADIO READS THE READ IS CORRECT SO I GAVE THEM A CREDIT THAT THEY WERE DUE.
007469,001,5/4/2005,CHRIS,ITRON SHOULD PICK UP READ IN 8/05
007587,001,5/5/2005,CHRIS,PER PSEG METER BROKE SENT REPLACE LETTER 5/5/05.
008203,001,5/5/2005,CHRIS,PER PSEG METER BROKE SENT LETTER
008641,001,5/5/2005,CHRIS,PER PSEG METER BROKE I SENT REPLACE LETTER
001868,001,5/5/2005,CHRIS,PER PSEG METER BROKE SENT REPLACE LETTER.  HOMEOWNER CALLED SHE CAN NOT MAKE TIME NOW TO REPLACE METER SO SHE CALLED THE READING IN.  INSIDE WORKING FINE
002115,001,5/5/2005,CHRIS,PER PSEG METER BROKE SENT REPLACE LETTER
002111,001,5/5/2005,CHRIS,PER PSEG METER BROKE SENT REPLACE LETTER
002109,001,5/5/2005,CHRIS,PER PSEG METER BROKE SENT REPLACE LETTER
000964,001,5/5/2005,CHRIS,"SENT REPLACE LETTER.
SENT READ LETTER 11/10/05"
002435,001,5/7/2005,CHRIS,might need a credit sent letter for homeowner to read meter
003982,001,9/12/2002,CHRIS,SENT READ LETTER
003990,001,9/12/2002,CHRIS,SENT READ LETTER
003244,001,9/12/2002,CHRIS,MARC READ 9/12/02
003245,001,9/12/2002,CHRIS,MARK READ 9/12/02
004013,001,9/12/2002,CHRIS,SENT READ LETTER
004015,001,9/12/2002,CHRIS,SENT READ LETTER
004018,001,9/12/2002,CHRIS,"SENT READ LETTER
SENT ANOTHER LETTER 12/5/02"
004428,015,9/12/2002,CAROL,METER STUCK PER MARK
004428,022,9/12/2002,CAROL,METER STUCK PER MARK
004104,001,9/13/2002,CHRIS,SENT LETTER
004368,001,9/13/2002,CHRIS,SENT READ LETTER
006160,001,9/13/2002,CHRIS,"SENT READ LETTER
"
006179,001,9/13/2002,CHRIS,SENT READ LETTER
006186,001,9/13/2002,CHRIS,SENT READ LETTER
006196,001,9/13/2002,CHRIS,SENT READ LETTER
006211,001,9/13/2002,CHRIS,SENT LETTER
006252,001,9/13/2002,CHRIS,SENT READ LETTER
006257,001,9/13/2002,CHRIS,"SENT READ LETTER
SENT 2ND LETTER 2/18/04"
006263,001,9/13/2002,CHRIS,SENT READ LETTER
006278,001,9/13/2002,CHRIS,SENT LETTER
006282,001,9/13/2002,CHRIS,SENT READ LETTER
006358,001,9/13/2002,CHRIS,SENT READ LETTER
006365,001,9/13/2002,CHRIS,SENT READ LETTER
006371,001,9/13/2002,CHRIS,SENT READ LETTER
006377,001,9/13/2002,CHRIS,"SENT READ LETTER
SENT LETTER 2/19/04"
006402,001,9/13/2002,CHRIS,SENT READ LETTER
006403,001,9/13/2002,CHRIS,SENT READ LETTER
006407,001,9/13/2002,CHRIS,SENT READ LETTER
006422,001,9/13/2002,CHRIS,"SENT READ LETTER
SENT LETTER 2/19/04
SENT READ LETTER 5/23/05"
006435,001,9/13/2002,CHRIS,SENT READ LETTER
006440,001,9/13/2002,CHRIS,SENT READ LETTER
006446,001,9/13/2002,CHRIS,SENT READ LETTER
006454,001,9/13/2002,CHRIS,SENT READ LETTER
006456,001,9/13/2002,CHRIS,SENT READ LETTER
006477,001,9/13/2002,CHRIS,SENT READ LETTER
006488,001,9/13/2002,CHRIS,SENT READ LETTER
006515,001,9/13/2002,CHRIS,SENT READ LETTER
006520,001,9/13/2002,CHRIS,SENT READ LETTER
006536,001,9/13/2002,CHRIS,SENT READ LETTER
006545,001,9/13/2002,CHRIS,SENT LETTER
006548,001,9/13/2002,CHRIS,"SENT READ LETTER.
SENT READ LETTER 2/22/05"
007000,001,9/13/2002,CAROL,SENT READ LETTER
006552,001,9/13/2002,CHRIS,SENT READ LETTER
006569,001,9/13/2002,CHRIS,SENT READ LETTER
006602,001,9/13/2002,CHRIS,SENT READ LETTER
006606,001,9/13/2002,CHRIS,SENT READ LETTER
007017,001,9/13/2002,CAROL,SENT READ LETTER
006691,001,9/13/2002,CHRIS,SENT READ LETTER
007043,001,9/13/2002,CAROL,SENT READ LETTER
006721,001,9/13/2002,CHRIS,SENT READ LETTER
006751,001,9/13/2002,CHRIS,SENT READ LETTER
006751,001,9/13/2002,CHRIS,
006794,001,9/13/2002,CHRIS,SENT READ LETTER
006840,001,9/13/2002,CHRIS,SENT READ LETTER
006853,001,9/13/2002,CHRIS,SENT READ LETTER
006855,001,9/13/2002,CHRIS,SENT READ LETTER
006869,001,9/13/2002,CHRIS,SENT READ LETTER
006887,001,9/13/2002,CHRIS,SENT READ LETTER
006922,001,9/13/2002,CHRIS,SENT READ LETTER
006938,001,9/13/2002,CHRIS,SENT READ LETTER
006955,001,9/13/2002,CHRIS,SENT READ LETTER
006966,001,9/13/2002,CHRIS,SENT READ LETTER
006973,001,9/13/2002,CHRIS,SENT READ LETTER
006981,001,9/13/2002,CHRIS,"SENT READ LETTER
SENT READ LETTER /2/16/05.
SENT READ LETTER 5/26/05."
006984,001,9/13/2002,CHRIS,SENT READ LETTER
006988,001,9/13/2002,CHRIS,SENT READ LETTER
007884,001,9/13/2002,CHRIS,SENT 2ND READ LETTER 2/27/04
007883,001,9/13/2002,CHRIS,SENT 2ND READ LETTER 2/27/04
007857,001,9/13/2002,CHRIS,"
SENT 2ND READ LETTER 2/26/04"
007815,001,9/13/2002,CHRIS,SENT READ LETTER
007797,001,9/13/2002,CHRIS,SENT READ LETTER
007754,001,9/13/2002,CHRIS,SENT READ LETTER
007747,001,9/13/2002,CHRIS,SENT READ LETTER
007717,001,9/13/2002,CHRIS,SENT READ LETTER
007661,001,9/13/2002,CHRIS,SENT READ LETTER
007655,001,9/13/2002,CHRIS,SENT READ LETTER
007643,001,9/13/2002,CHRIS,SENT READ LETTER
007639,001,9/13/2002,CHRIS,SENT READ LETTER
007635,001,9/13/2002,CHRIS,SENT READ LETTER
007634,001,9/13/2002,CHRIS,SENT READ LETTER
007633,001,9/13/2002,CHRIS,SENT READ LETTER
001174,001,9/16/2002,CHRIS,MR. OTT TOOK READING
000718,001,9/16/2002,CHRIS,MR. SORENEN CALLED HE READ METER IT DIDNT GO WITH PRIOR READ.  HE IS NOT HOME DURING WEEK.  WOULD NEED A SAT APT
007871,001,9/19/2002,CHRIS,THEY TOOK READ THEN ON 9/18/02 MARK TOOK READ BUT THE COMPUTER WOULDNT USE THE DATE 8/1/02
001097,001,9/20/2002,CHRIS,SENT LETTER 2ND TIME
002324,001,10/4/2002,CHRIS,75.56 WAS ADJ IN ERROR WAS PUT BACK ON ACCOUNT
003540,001,11/18/2002,CHRIS,SENT REPLACE LETTER STUCK PER PSEG
003573,001,11/18/2002,CHRIS,PSEG GAVE SAME READ AS 2 QTRS SO I SENT LETTER
002181,001,11/18/2002,CHRIS,SENT READ LETTER PSEG READ DOESNT MAKE SENSE
001157,001,11/18/2002,CHRIS,PSEG GAVE OLD READ SENT LETTER
000420,001,12/2/2002,CHRIS,SENT REPLACE LETTER
000922,001,12/2/2002,CHRIS,SENT LETTER
000970,001,12/2/2002,CHRIS,"SENT REPLACE LETTER
"
002934,001,12/2/2002,CHRIS,PER DAVE NOT ENTITLED TO A CREDIT READINGS AND BILLS ARE CORRECT
002004,001,12/2/2002,CAROL,SENT REPLACE LETTER
001647,001,12/2/2002,CAROL,SENT REPLACE LETTER
002495,001,12/2/2002,CHRIS,SENT READ LETTER
002124,001,12/2/2002,CAROL,SENT REPLACE LETTER
002178,001,12/2/2002,CAROL,SENT REPLACE LETTER
002766,001,12/2/2002,CHRIS,SENT LETTER
002459,001,12/2/2002,CHRIS,METER NEVER RESET TO 0 ADJ BILL 11/1/01 
003102,001,12/2/2002,CHRIS,SENT READ LETTER
003593,001,12/2/2002,CHRIS,SENT READ LETTER
003691,001,12/2/2002,CHRIS,SENT REPLACE LETTER
000007,001,12/2/2002,CHRIS,"SENT READ LETTER



"
000040,001,12/2/2002,CHRIS,SENT READ LETTER
000047,001,12/2/2002,CHRIS,SENT READ LETTER
000048,001,12/2/2002,CHRIS,SENT READ LETTER
000102,001,12/2/2002,CHRIS,SENT READ LETTER
000110,001,12/2/2002,CHRIS,SENT READ LETTER
000111,001,12/2/2002,CHRIS,SENT READ LETTER
007696,001,12/3/2002,LORI,METER WAS NOT NOT RESET TO ZERO WHEN NEW METER WAS INSTALLED.  RESET TO TOTAL AMOUNT BILLED.
006355,001,12/3/2002,CAROL,SENT REPLACE METER LETTER
006468,001,12/3/2002,CAROL,SENT REPLACE METER LETTER
000174,001,12/3/2002,CHRIS,SENT READ LETTER
000182,001,12/3/2002,CHRIS,SENT READ LETTER
000204,001,12/3/2002,CHRIS,SENT READ LETTER
000211,001,12/3/2002,CHRIS,SENT REPLACE READ LETTER
000214,001,12/3/2002,CHRIS,SENT READ LETTER
000216,001,12/3/2002,CHRIS,SENT READ LETTER
000218,001,12/3/2002,CHRIS,SENT READ LETTER
000235,001,12/3/2002,CHRIS,SENT READ LETTER
000253,001,12/3/2002,CHRIS,SENT READ LETTER
000284,001,12/3/2002,CHRIS,SENT LETTER
000289,001,12/3/2002,CHRIS,SENT READ LETTER
000297,001,12/3/2002,CHRIS,SENT READ LETTER
000299,001,12/3/2002,CHRIS,SENT READ LETTER
000331,001,12/3/2002,CHRIS,SENT LETTER
000361,001,12/3/2002,CHRIS,SENT READ LETTER
000363,001,12/3/2002,CHRIS,SENT REPLACE LETTER
000364,001,12/3/2002,CHRIS,SENT READ LETTER
000377,001,12/3/2002,CHRIS,SENT READ LETTER
000394,001,12/3/2002,CHRIS,SENT CARD
000396,001,12/3/2002,CHRIS,SENT READ LETTER
000422,001,12/3/2002,CHRIS,SENT READ LETTER
000426,001,12/3/2002,CHRIS,SENT READ LETTER
000440,001,12/3/2002,CHRIS,SENT READ LETTER
000441,001,12/3/2002,CHRIS,SENT READ LETTER
000471,001,12/3/2002,CHRIS,SENT READ LETTER
000481,001,12/3/2002,CHRIS,SENT READ LETTER
000497,001,12/3/2002,CHRIS,SENT READ LETTER
000531,001,12/3/2002,CHRIS,SENT READ LETTER
000566,001,12/3/2002,CHRIS,SENT READ LETTER
000569,001,12/3/2002,CHRIS,SENT LETTER
000607,001,12/3/2002,CHRIS,SENT READ LETTER
000625,001,12/3/2002,CHRIS,SENT LETTER
000630,001,12/3/2002,CHRIS,SENT READ LETTER
000644,001,12/3/2002,CHRIS,SENT READ LETTER
000650,001,12/3/2002,CHRIS,SENT READ LETTER
000659,001,12/3/2002,CHRIS,SENT READ LETTER
000666,001,12/3/2002,CHRIS,SENT READ LETTER
000673,001,12/3/2002,CHRIS,SENT LETTER
000674,001,12/3/2002,CHRIS,SENT READ LETTER
000683,001,12/3/2002,CHRIS,SENT READ LETTER
001002,001,12/3/2002,CAROL,SENT READ LETTER
001007,001,12/3/2002,CAROL,SENT READ LETTER
000697,001,12/3/2002,CHRIS,SENT READ LETTER
000708,001,12/3/2002,CHRIS,SENT READ LETTER
000710,001,12/3/2002,CHRIS,SENT READ LETTER
000714,001,12/3/2002,CHRIS,SENT READ LETTER
000721,001,12/3/2002,CHRIS,"SENT READ LETTER.
SENT READ LETTER 2/11/05                                                                     SENT NEW METER LETTER 6/21/06"
000725,001,12/3/2002,CHRIS,SENT READ LETTER
000737,001,12/3/2002,CHRIS,SENT READ LETTER
000745,001,12/3/2002,CHRIS,SENT READ LETTER
000753,001,12/3/2002,CHRIS,SENT REPLACE LETTER
000808,001,12/3/2002,CHRIS,SENT READ LETTER
000834,001,12/3/2002,CHRIS,SENT READ LETTER
000853,001,12/3/2002,CHRIS,SENT READ LETTER
000874,001,12/3/2002,CHRIS,SENT READ LETTER
000879,001,12/3/2002,CHRIS,SENT READ LETTER
000885,001,12/3/2002,CHRIS,SENT READ LETTER
000918,001,12/3/2002,CHRIS,SENT REPLACE LETTER
000947,001,12/3/2002,CHRIS,SENT READ LETTER
000964,001,12/3/2002,CHRIS,SENT READ LETTER
000974,001,12/3/2002,CHRIS,SENT LETTER
001018,001,12/3/2002,CAROL,SENT REPLACE METER LETTER
000995,001,12/3/2002,CHRIS,SENT READ LETTER
001050,001,12/3/2002,CAROL,SENT READ METER LETTER
001069,001,12/3/2002,CAROL,SENT READ METER LETTER
001097,001,12/3/2002,CAROL,SENT READ METER LETTER
001137,001,12/3/2002,CAROL,SENT READ METER LETTER
002020,001,12/3/2002,CHRIS,SENT READ LETTER
002021,001,12/3/2002,CHRIS,SENT READ LETTER
002023,001,12/3/2002,CHRIS,SENT READ LETTER
002036,001,12/3/2002,CHRIS,SENT READ LETTER
002046,001,12/3/2002,CHRIS,SENT READ LETTER
002053,001,12/3/2002,CHRIS,SENT READ LETTER
002057,001,12/3/2002,CHRIS,SENT READ LETTER
002058,001,12/3/2002,CHRIS,SENT READ LETTER
002059,001,12/4/2002,CHRIS,SENT READ LETTER
002064,001,12/4/2002,CHRIS,SENT READ LETTER
002067,001,12/4/2002,CHRIS,SENT READ LETTER
002069,001,12/4/2002,CHRIS,SENT REPLACE LETTER
001202,001,12/4/2002,CAROL,SENT READ LETTER
001205,001,12/4/2002,CAROL,SENT READ LETTER
002076,001,12/4/2002,CHRIS,SENT READ LETTER
001207,001,12/4/2002,CAROL,SENT READ LETTER
002112,001,12/4/2002,CHRIS,SENT READ LETTER
002128,001,12/4/2002,CHRIS,SENT READ LETTER
002134,001,12/4/2002,CHRIS,SENT READ LETTER
001227,001,12/4/2002,CAROL,SENT READ LETTER
002135,001,12/4/2002,CHRIS,SENT READ LETTER
001234,001,12/4/2002,CAROL,SENT READ LETTER
001238,001,12/4/2002,CAROL,SENT READ LETTER
002277,001,12/4/2002,CHRIS,SENT READ LETTER
002767,001,12/4/2002,CHRIS,OWNER CALLED DOENSNT USE SPRINKLER IT IS NOT WORKING HE CALLED TODAY I GAVE 0 USAGE
002282,001,12/4/2002,CHRIS,SENT READ LETTER
001246,001,12/4/2002,CAROL,SENT READ LETTER
001252,001,12/4/2002,CAROL,SENT READ LETTER
002302,001,12/4/2002,CHRIS,"SENT READ LETTER


"
002303,001,12/4/2002,CHRIS,SENT REPLACE LETTER
002349,001,12/4/2002,CHRIS,SENT READ LETTER
002351,001,12/4/2002,CHRIS,SENT READ LETTER
002372,001,12/4/2002,CHRIS,SENT READ LETTER
001279,001,12/4/2002,CAROL,
001279,001,12/4/2002,CAROL,SENT READ LETTER
002416,001,12/4/2002,CHRIS,SENT READ LETTER
002434,001,12/4/2002,CHRIS,"SENT READ LETTER
"
002445,001,12/4/2002,CHRIS,SENT READ LETTER
002452,001,12/4/2002,CHRIS,"SENT REPLACE LETTER
"
002471,001,12/4/2002,CHRIS,SENT READ LETTER
002483,001,12/4/2002,CHRIS,SENT READ LETTER
002494,001,12/4/2002,CHRIS,SENT READ LETTER
001364,001,12/4/2002,CAROL,SENT READ LETTER
002531,001,12/4/2002,CHRIS,SENT READ LETTER
002535,001,12/4/2002,CHRIS,SENT LETTER
001369,001,12/4/2002,CAROL,SENT READ LETTER
002549,001,12/4/2002,CHRIS,SENT READ LETTER
001371,001,12/4/2002,CAROL,SENT READ LETTER
002556,001,12/4/2002,CHRIS,SENT READ LETTER
002570,001,12/4/2002,CHRIS,SENT READ LETTER
002577,001,12/4/2002,CHRIS,SENT READ LETTER
001382,001,12/4/2002,CAROL,SENT READ LETTER
002606,001,12/4/2002,CHRIS,SENT READ LETTER
002613,001,12/4/2002,CHRIS,SENT READ LETTER
001391,001,12/4/2002,CAROL,SENT READ LETTER
002630,001,12/4/2002,CHRIS,SENT READ LETTER
002631,001,12/4/2002,CHRIS,SENT READ LETTER
002648,001,12/4/2002,CHRIS,SENT READ LETTER
002653,001,12/4/2002,CHRIS,SENT READ LETTER
002693,001,12/4/2002,CHRIS,SENT READ LETTER
002694,001,12/4/2002,CHRIS,"SENT READ LETTER
"
002698,001,12/4/2002,CHRIS,SENT READ LETTER
002723,001,12/4/2002,CHRIS,SENT READ LETTER
002727,001,12/4/2002,CHRIS,SENT READ LETTER
002730,001,12/4/2002,CHRIS,SENT READ LETTER
002736,001,12/4/2002,CHRIS,SENT READ LETTER
002743,001,12/4/2002,CHRIS,SENT READ LETTER
001430,001,12/4/2002,CAROL,SENT READ LETTER
002764,001,12/4/2002,CHRIS,SENT READ LETTER
002780,001,12/4/2002,CHRIS,SENT READ LETTER
002782,001,12/4/2002,CHRIS,SENT READ LETTER
002785,001,12/4/2002,CHRIS,"SENT READ LETTER
"
002790,001,12/4/2002,CHRIS,SENT READ LETTER
002795,001,12/4/2002,CHRIS,SENT READ LETTER
001496,001,12/4/2002,CAROL,SENT READ LETTER
002800,001,12/4/2002,CHRIS,SENT LETTER DONT KNOW IF ANYONE IS THERE YET
002844,001,12/4/2002,CHRIS,SENT READ LETTER
002865,001,12/4/2002,CHRIS,SENT READ LETTER
002868,001,12/4/2002,CHRIS,SENT READ LETTER
001528,001,12/4/2002,CAROL,SENT REPLACE LETTER
002882,001,12/4/2002,CHRIS,"SENT READ LETTER
"
002891,001,12/4/2002,CHRIS,SENT READ LETTER
001533,001,12/4/2002,CAROL,SENT READ LETTER
002898,001,12/4/2002,CHRIS,SENT READ LETTER
002907,001,12/4/2002,CHRIS,SENT READ LETTER
002919,001,12/4/2002,CHRIS,SENT READ LETTER
002923,001,12/4/2002,CHRIS,SENT READ LETTER
002924,001,12/4/2002,CHRIS,SENT READ LETTER
002941,001,12/4/2002,CHRIS,SENT READ LETTER
002943,001,12/4/2002,CHRIS,SENT READ LETTER
002944,001,12/4/2002,CHRIS,"SENT READ LETTER.
SENT READ LETTER 8/16/05"
002960,001,12/4/2002,CHRIS,SENT READ LETTER
002962,001,12/4/2002,CHRIS,SENT READ LETTER
002968,001,12/4/2002,CHRIS,SENT READ LETTER
002969,001,12/4/2002,CHRIS,SENT READ LETTER
002970,001,12/4/2002,CHRIS,SENT REPLACE LETTER
003007,001,12/4/2002,CHRIS,SENT READ LETTER
003014,001,12/4/2002,CHRIS,"SENT READ LETTER
SENT READ LETTER 2/16/05"
003015,001,12/4/2002,CHRIS,SENT READ LETTER
001606,001,12/4/2002,CAROL,SENT READ LETTER
003595,001,12/4/2002,CHRIS,SENT READ LETTER
003022,001,12/4/2002,CHRIS,SENT READ LETTER
003031,001,12/4/2002,CHRIS,SENT READ LETTER
003047,001,12/4/2002,CHRIS,SENT LETTER
003053,001,12/4/2002,CHRIS,SENT READ LETTER
001663,001,12/4/2002,CAROL,SENT READ LETTER
003055,001,12/4/2002,CHRIS,SENT READ LETTER
003060,001,12/4/2002,CHRIS,SENT READ LETTER
003069,001,12/4/2002,CHRIS,SENT READ LETTER
003076,001,12/4/2002,CHRIS,SENT READ LETTER
003081,001,12/4/2002,CHRIS,SENT READ LETTER
001671,001,12/4/2002,CAROL,SENT READ LETER
003110,001,12/4/2002,CHRIS,SENT READ LETTER
003117,001,12/4/2002,CHRIS,SENT READ LETTER
001680,001,12/4/2002,CAROL,SENT READ LETTER
003134,001,12/4/2002,CHRIS,"SENT READ LETTER
SENT READ LETTER & CARD 11/9/05"
001681,001,12/4/2002,CAROL,SENT READ LETTER
003136,001,12/4/2002,CHRIS,SENT READ LETTER
003142,001,12/4/2002,CHRIS,SENT READ PEPLACE LETTER
003143,001,12/4/2002,CHRIS,SENT READ LETTER
001691,001,12/4/2002,CAROL,SENT READ LETTER
003164,001,12/4/2002,CHRIS,SENT READ LETTER
001699,001,12/4/2002,CAROL,SENT READ LETTER
001707,001,12/4/2002,CAROL,SENT READ LETTER
003169,001,12/4/2002,CHRIS,SENT READ LETTER
003170,001,12/4/2002,CHRIS,SENT READ LETTER
003172,001,12/4/2002,CHRIS,"SENT READ LETTER
"
003177,001,12/4/2002,CHRIS,SENT READ LETTER
003189,001,12/4/2002,CHRIS,SENT READ LETTER
003194,001,12/4/2002,CHRIS,SENT READ LETTER
003304,001,12/4/2002,CHRIS,SENT READ LETTER
004021,001,12/5/2002,LORI,SENT LETTER 12/5/02
003393,001,12/5/2002,CHRIS,SENT READ LETTER
003958,001,2/22/2005,CHRIS,SENT READ LETTER
003896,001,2/22/2005,CHRIS,SENT READ LETTER
003893,001,2/22/2005,CHRIS,SENT READ LETTER
003780,001,2/22/2005,CHRIS,SENT READ LETTER
003823,001,2/22/2005,CHRIS,SENT READ LETTER
003198,001,2/22/2005,CAROL,"SENT READ LETTER
SENT READ LETTER 5/26/05.
SENT READ LETTER 8/12/05
SENT READ LETTER 11/9/05"
008006,001,2/22/2005,CHRIS,"SENT READ LETTER
SENT READ LETTER 5/26/05.
SENT READ LETTER 8/11/05"
003554,001,2/22/2005,CHRIS,"SENT READ LETTER
SENT READ LETTER 5/26/05.
SENT READ LETTER 8/11/05"
003078,001,2/22/2005,CAROL,"SENT READ LETTER
SENT READ LETTER 5/26/05.
SENT READ LETTER 8/12/05
SENT READ LETTER 11/9/05"
008326,001,2/22/2005,CAROL,SENT READ LETTER
003063,001,2/22/2005,CAROL,"SENT READ LETTER
SENT READ LETTER 5/26/05"
003654,001,2/22/2005,CHRIS,"SENT READ LETTER.
SENT READ LETTER 8/11/05"
003414,001,2/23/2005,CHRIS,SENT READ LETTER
008285,001,2/23/2005,CHRIS,SENT READ LETTER
008443,001,2/23/2005,CHRIS,SENT READ LETTER
003069,001,2/23/2005,CAROL,SENT READ LETTER
003502,001,2/23/2005,CHRIS,SENT READ LETTER
003503,001,2/23/2005,CHRIS,SENT READ LETTER
008237,001,2/23/2005,CHRIS,SENT READ LETTER
003467,001,2/23/2005,CHRIS,SENT READ LETTER
003438,001,2/23/2005,CHRIS,SENT READ LETTER
007445,001,2/23/2005,CAROL,SENT READ LETTER. SENT REPLACE LETTER 4/22/05.
003125,001,2/23/2005,CAROL,"SENT READ LETTER.
SENT READ LETTER 8/12/05"
008423,001,2/23/2005,CHRIS,SENT READ LETTER
003152,001,2/23/2005,CAROL,SENT READ LETTER
006257,001,2/23/2005,CAROL,"SENT READ LETTER.
SENT READ LETTER 8/12/05."
003160,001,2/23/2005,CAROL,SENT READ LETTER
003177,001,2/23/2005,CAROL,"SENT READ LETTER
SENT READ LETTER 5/26/05.
SENT READ LETTER 8/12/05.
SENT READ & CARD 11/9/05"
008427,001,2/24/2005,CAROL,CHECK FOR $90 HAD THIS ACCT NO. & ADDRESS 37 OAKWOOD
003319,001,2/24/2005,CAROL,SENT READ LETTER
003325,001,2/24/2005,CAROL,SENT READ LETTER
006901,001,2/18/2005,CHRIS,SENT READ LETTER
003875,001,2/18/2005,CHRIS,SENT READ LETTER
002274,001,3/3/2005,CHRIS,LEFT HIGH READ HOPEFULLY THEY WILL CALL. I SENT THEM A NOTE TO CALL IN READING
002277,001,3/7/2005,CHRIS,SENT REPLACE LETTER
004238,001,3/7/2005,CHRIS,THE SERVICEMEN WENT NO ONE THERE
004255,001,3/7/2005,CHRIS,LOW ERT # 21018379
002201,001,3/7/2005,CHRIS,THE METER INFO ON ACCOUNT IS METER ON FLOOR THERE IS A METER THAT THEY READ
002201,001,3/7/2005,CHRIS,THIS METER IS NOT IN NEVER SHOULD HAVE BEEN RESET IS 2001 SO WE CALCULATED AND ADJUSTED ACCOUNT. SERVICE ORDER IN MARCH 2005 FOLDER
001367,001,3/7/2005,CHRIS,PER SERVICE MEN ERT NEEDS TO BE REPLACED I SENT LETTER. THER IS A SERVICE ORDER IN MARCH 2005 I SENT LETTER
004420,001,3/7/2005,LORI,METER OVERBILLED DUE TO INCORRECT READING.  GAVE CREDIT FOR WATER AND SEWER CHARGES BILLED.
002094,001,3/7/2005,CHRIS,PER SEVICEMEN THEY NEED TO REPLACE ERT SENT LETTER. FIXED 3/11/05
008077,001,3/7/2005,CHRIS,SERVICE MEN WENT AND READ METER IN MARCH SO INFO IS IN MARCH FOLDER NOT FEB NEEDED TO PUT FEB FOR BILLING PURPOSE
006605,001,3/7/2005,CHRIS,PER SERVICE MEN ERT NEEDS REPLACEMENT SENT LETTER. SERVICE ORDER IN MARCH 2005 FOLDER. CHANGED ERT 3/17/05
007226,001,3/7/2005,CHRIS,PER SERVICEMEN ERT NEEDS REPLACEMENT. THERE IS A SERVICE ORDER IN MARCH 2005 FOLDER THAT SHOWS ERT BAD.  WE NEED TO SEND A LETTER ONCE ERT PROBLEM FIXED BY TIM 6/2/05
001457,001,3/7/2005,CHRIS,ERT IS STILL NOT WORKING SENT LETTER WE NEED TO REPLACE ERT PER SEVICE ORDER IN MARCH 2005 FOLDER. REPLACED ERT 3/16/05
002228,001,3/7/2005,CHRIS,SENT LETTER SERVICE MEN NEED TO CHANGE ERT THEY CANT GET IN THIS BUILDING SERVICE ORDER IS IN 3/05 FOLDER. 3/17/05 READ METER AND REPLACED ERT.
007977,001,3/8/2005,CHRIS,HOME OWNER REFUSED TO WAIT FOR OUR MEN TO READ HE STATED IT IS CORRECT HE HAD A LEAK AND IS AWARE OF THE LARGE BILL
008758,001,3/9/2005,CHRIS,FOOT SOLUTIONS. SUITE 1A
008758,001,3/11/2005,CHRIS,WE ADJ ACCOUNT PER MATT
007900,001,3/14/2005,CHRIS,MATT GAVE THEM A METER INFO IN SERVICE ORDER 3/05
003462,001,3/14/2005,CHRIS,METER NEEDS TO BE REPLACED I SENT REPLACE LETTER 
003949,001,3/14/2005,CHRIS,LEFT HIGH READING SENT A NOTE TO CALL IN READ
007982,001,3/14/2005,CHRIS,LEFT HIGH READ SENT READ NOTE
000111,001,3/14/2005,CHRIS,I CALLED AND SPOKE TO MRS SNODEN SHE IS GOING TO CALL TO MAKE APT SOON HAS TO CHECK HER SCHEDULE
008542,001,3/14/2005,CHRIS,PER BARBARA THEY ARE NOT IN NOR DO THEY HAVE A CO.  I SENT A FORM FOR GARBAGE TO CEASE.  THE SEVICE MEN CHANGE METER ON 6/21/05
008039,001,3/15/2005,CAROL,CK FOR $90.00 FROM COMMERCE BANK WITH THIS ACCT. # WITH THE NAME HENRIETTE G. WARNER
003865,001,3/16/2005,CHRIS,SENT REPLACE LETTER
000086,001,3/17/2005,CHRIS,SENT REPAIR REPLACE LETTER ITRON NOT PICKING UP READS.
008180,001,3/24/2005,CHRIS,WE CREDIT THIS ACCOUNT FROM ACCOUNT 8181 WHICH IS NOW CLOSED
002919,001,5/7/2005,CHRIS,MIGHT NEED CREDIT I PIUT INTON ROUTE TO SEE IF GUYS COULD GET READ
003271,001,5/7/2005,CHRIS,SENT REPLACE LETTER
003454,001,5/7/2005,CHRIS,PSEG READ DID NOT MAKE SENSE SENT READ LETTER
003639,001,5/9/2005,CAROL,SENT REPLACE LETTER
003645,001,5/9/2005,CAROL,SENT REPLACE LETTER
003649,001,5/9/2005,CAROL,"SENT READ LETTER.
SENT READ LETTER 8/11/05.
SENT READ LETTER 11/9/05"
007982,001,4/14/2005,CHRIS,PER DAVE HE HAS TO PAY $126.00 NOW AND 43.48 OVER NEXT FOUR QTRS. HE HAS UNTIL 4/05 TO PAY.
003278,001,4/29/2005,CHRIS,OTHER MISC CHARGE FOR RETURNED CHECK AUTHORIZED BE HOLLY
006984,001,4/29/2005,CHRIS,190.00 MISC CHARGE AUTHORIZED BY HOLLY
001799,001,4/29/2005,CHRIS,40.00 CHECK CHG IN GARB AUTHORIZED BY HOLLY. 93.55 MISC CHARGE ALSO AUTHORIZED FOR GARBAGE BY HOLLY.
008715,001,5/6/2005,CHRIS,PER MR ROSARIO NO ONE IS THERE THEY ARE GOING TO DO CONSTRUCTION AND MAKE IT A ONE FAMILY HOUSE
001888,001,5/6/2005,CHRIS,SENT REPLACE LETTER
002016,001,5/6/2005,CHRIS,LEFT HIGH READ HOPING THEY WILL CALL 
003652,001,5/9/2005,CAROL,SENT REPLACE LETTER
003863,001,5/9/2005,CAROL,SENT REPLACE LETTER
004035,001,5/9/2005,CAROL,SENT LETTER
004044,001,5/9/2005,CAROL,SENT READ LETTER
004197,001,5/10/2005,CHRIS,"PER PSEG BROKE.
SENT REPLACE LETTER 8/23/06"
007924,001,5/10/2005,CHRIS,PER PSEG SAME READ AS LAST QUARTER CHECK AUGUST READ ESTIMATED FOR THIS QUARTER
008011,001,5/10/2005,CHRIS,SENT READ LETTER
008415,001,5/10/2005,CHRIS,"SENT READ LETTER.
SENT READ LETTER 8/12/05.
SENT READ LETTER 11/9/05
"
008435,001,5/10/2005,CHRIS,SENT READ LETTER
008545,001,5/10/2005,CHRIS,SENT READ LETTER PSEG IS LOWER THAN LAST READ 
008659,001,5/10/2005,CHRIS,
001972,001,5/11/2005,CHRIS,APT A
008224,001,5/20/2005,CHRIS,sent read letter
008610,001,5/20/2005,CHRIS,sent read letter
000959,001,5/20/2005,CHRIS,sent read letter
007966,001,5/20/2005,CHRIS,sent read letter
000905,001,5/20/2005,CHRIS,SENT READ LETTER
008195,001,5/20/2005,CHRIS,SENT READ LETTER
008578,001,5/20/2005,CHRIS,SENT READ LETTER
000896,001,5/20/2005,CHRIS,SENT READ LETTER
001980,001,5/24/2005,CHRIS,SENT READ LETTER
002077,001,5/24/2005,CHRIS,SENT READ LETTER
001644,001,5/24/2005,CHRIS,SENT READ LETTER LEFT HIGH READ FROM PSEG ALSO WROTE HIGH READING ON THE LETTER I SENT HOPEFULLY THEY WILL CALL
007564,001,5/24/2005,CHRIS,"SENT READ LETTER
SENT READ LETTER 11/10/05"
008500,001,5/24/2005,CHRIS,"SENT READ LETTER
SENT READ LETTER 11/10/05"
001572,001,5/24/2005,CHRIS,SENT READ LETTER
002278,001,5/24/2005,CHRIS,"SENT READ LETTER
SENT READ LETTER 11/1/05"
002298,001,5/24/2005,CHRIS,SENT READ LETTER
002251,001,5/24/2005,CHRIS,SENT READ LETTER
006564,001,5/25/2005,CHRIS,SENT READ LETTER
002783,001,5/25/2005,CHRIS,SENT READ LETTER
007931,001,5/25/2005,CHRIS,SENT READ LETTER
007555,001,5/25/2005,CHRIS,SENT READ LETTER
002734,001,5/25/2005,CHRIS,SENT READ LETTER
006200,001,5/25/2005,CHRIS,"SENT READ LETTER.
SENT READ LETTER 8/16/05"
008608,001,6/9/2005,CHRIS,PER DAVE SINCE GARBAGE FORM WAS SENT AND NOT RETURNED LEAVE ON KEEP BILLING
008348,001,11/22/2004,CHRIS,SENT READ LETTER
000442,001,6/11/2002,JANE,SENT READ LETTER
006440,001,6/11/2002,CHRIS,SENT READ LETTER
000445,001,6/11/2002,JANE,SENT READ LETTER
006446,001,6/11/2002,CHRIS,SENT READ LETTER
000458,001,6/11/2002,JANE,SENT READ LETTER
000463,001,6/11/2002,JANE,SENT READ LETTER
000480,001,6/11/2002,JANE,SENT READ LETTER
006489,001,6/12/2002,CHRIS,SENT READ LETTER
006518,001,6/12/2002,CHRIS,SENT READ LETTER
006545,001,6/12/2002,CHRIS,SENT READ LETTER
003115,001,6/12/2002,LORI,"SENT LETTER 5/1/02
"
006552,001,6/12/2002,CHRIS,SENT READ LETTER
006568,001,6/12/2002,CHRIS,SENT READ LETTER
006578,001,6/12/2002,CHRIS,SENT READ LETTER
006598,001,6/12/2002,CHRIS,SENT REPLACE LETTER
006599,001,6/12/2002,CHRIS,SENT READ LETTER
006606,001,6/12/2002,CHRIS,SENT READ LETTER
006607,001,6/12/2002,CHRIS,SENT READ LETTER
006654,001,6/12/2002,CHRIS,SENT READ LETTER
006865,001,6/12/2002,CHRIS,SENT READ LETTER
006874,001,6/12/2002,CHRIS,SENT READ LETTER
006881,001,6/12/2002,CHRIS,SENT READ LETTER
002108,001,6/12/2002,CHRIS,DONT SEND ANYMORE READ NOTES THE METER IS UNDER HOUSE
006984,001,6/12/2002,CHRIS,SENT READ LETTER
007003,001,6/12/2002,CHRIS,SENT READ LETTER
007044,001,6/12/2002,CHRIS,SENT READ LETTER
007056,001,6/12/2002,CHRIS,SENT READ LETTER
007074,001,6/12/2002,CHRIS,SENT READ LETTER
007135,001,6/12/2002,CHRIS,SENT READ LETTER
007153,001,6/12/2002,CHRIS,SENT READ LETTER
007155,001,6/12/2002,CHRIS,SENT READ LETTER
007172,001,6/12/2002,CHRIS,SENT READ LETTER
007217,001,6/13/2002,CHRIS,sent read letter
007226,001,6/13/2002,CHRIS,SENT READ LETTER
007271,001,6/13/2002,CHRIS,SENT READ LETTER
000546,001,6/13/2002,CAROL,SENT READ LETTER
007290,001,6/13/2002,CHRIS,SENT REPLACE LETTER
000548,001,6/13/2002,CAROL,SENT READ LETTER
000565,001,6/13/2002,CAROL,SENT READ LETTER
000569,001,6/13/2002,CAROL,SENT READ LETTER
000614,001,6/13/2002,CAROL,SENT READ LETTER 
007357,001,6/13/2002,CHRIS,SENT READ LETTER
007362,001,6/13/2002,CHRIS,SENT READ LETTER
007408,001,6/13/2002,CHRIS,SENT READ LETTER
007419,001,6/13/2002,CHRIS,SENT READ LETTER
000622,001,6/13/2002,CAROL,SENT READ LETTER
007440,001,6/13/2002,CHRIS,SENT READ LETTER
007445,001,6/13/2002,CHRIS,SENT READ LETTER
000625,001,6/13/2002,CAROL,SENT READ LETTER
007451,001,6/13/2002,CHRIS,SENT READ LETTER
007472,001,6/13/2002,CHRIS,SENT READ LETTER
007478,001,6/13/2002,CHRIS,SENT READ LETTER
000650,001,6/13/2002,CAROL,
000650,001,6/13/2002,CAROL,SENT READ LETTER
007480,001,6/13/2002,CHRIS,SENT READ LETTER
007487,001,6/13/2002,CHRIS,SENT READ LETTER
000668,001,6/13/2002,CAROL,SENT READ LETTER
007493,001,6/13/2002,CHRIS,SENT READ LETTER
007506,001,6/13/2002,CHRIS,SENT READ LETTER
007508,001,6/13/2002,FRANK,SENT READ LETTER
007510,001,6/13/2002,CHRIS,SENT READ LETTER
007520,001,6/13/2002,CHRIS,SENT READ LETTER
007528,001,6/13/2002,CHRIS,SENT READ LETTER
000675,001,6/13/2002,CAROL,SENT READ LETTER
000684,001,6/13/2002,CAROL,SENT READ LETTER
007583,001,6/13/2002,CHRIS,SENT READ LETTER
007587,001,6/13/2002,JACK,SENT READ LETTER
007619,001,6/13/2002,CHRIS,SENT READ LETTER
000718,001,6/13/2002,CAROL,SENT READ LETTER
007622,001,6/13/2002,CHRIS,SENT READ LETTER
008241,001,8/9/2004,CHRIS,SENT READ LETTER
000046,001,8/9/2004,CHRIS,SENT READ LETTER
000137,001,8/9/2004,ADAM,SENT READ LETTER
000186,001,8/9/2004,CHRIS,SENT LETTER TO READ 
000149,001,8/9/2004,CHRIS,"SENT READ LETTER"

